<?xml version="1.0" encoding="UTF-8"?>
<svg xmlns="http://www.w3.org/2000/svg" xmlns:xlink="http://www.w3.org/1999/xlink" width="720pt" height="288pt" viewBox="0 0 720 288" version="1.1">
<defs>
<g>
<symbol overflow="visible" id="glyph0-0">
<path style="stroke:none;" d="M 0.5 1.765625 L 0.5 -7.046875 L 5.5 -7.046875 L 5.5 1.765625 Z M 1.0625 1.21875 L 4.9375 1.21875 L 4.9375 -6.484375 L 1.0625 -6.484375 Z M 1.0625 1.21875 "/>
</symbol>
<symbol overflow="visible" id="glyph0-1">
<path style="stroke:none;" d="M 1.234375 -0.828125 L 2.859375 -0.828125 L 2.859375 -6.390625 L 1.09375 -6.046875 L 1.09375 -6.9375 L 2.84375 -7.296875 L 3.828125 -7.296875 L 3.828125 -0.828125 L 5.4375 -0.828125 L 5.4375 0 L 1.234375 0 Z M 1.234375 -0.828125 "/>
</symbol>
<symbol overflow="visible" id="glyph0-2">
<path style="stroke:none;" d="M 1.921875 -0.828125 L 5.359375 -0.828125 L 5.359375 0 L 0.734375 0 L 0.734375 -0.828125 C 1.109375 -1.210938 1.617188 -1.734375 2.265625 -2.390625 C 2.910156 -3.046875 3.316406 -3.46875 3.484375 -3.65625 C 3.796875 -4.007812 4.015625 -4.304688 4.140625 -4.546875 C 4.265625 -4.796875 4.328125 -5.039062 4.328125 -5.28125 C 4.328125 -5.664062 4.191406 -5.976562 3.921875 -6.21875 C 3.648438 -6.46875 3.296875 -6.59375 2.859375 -6.59375 C 2.546875 -6.59375 2.21875 -6.535156 1.875 -6.421875 C 1.539062 -6.316406 1.175781 -6.15625 0.78125 -5.9375 L 0.78125 -6.9375 C 1.175781 -7.09375 1.546875 -7.210938 1.890625 -7.296875 C 2.234375 -7.378906 2.550781 -7.421875 2.84375 -7.421875 C 3.59375 -7.421875 4.191406 -7.234375 4.640625 -6.859375 C 5.097656 -6.484375 5.328125 -5.976562 5.328125 -5.34375 C 5.328125 -5.039062 5.269531 -4.753906 5.15625 -4.484375 C 5.039062 -4.222656 4.835938 -3.910156 4.546875 -3.546875 C 4.460938 -3.453125 4.203125 -3.175781 3.765625 -2.71875 C 3.328125 -2.269531 2.710938 -1.640625 1.921875 -0.828125 Z M 1.921875 -0.828125 "/>
</symbol>
<symbol overflow="visible" id="glyph0-3">
<path style="stroke:none;" d="M 4.0625 -3.9375 C 4.53125 -3.832031 4.894531 -3.617188 5.15625 -3.296875 C 5.425781 -2.984375 5.5625 -2.59375 5.5625 -2.125 C 5.5625 -1.40625 5.3125 -0.847656 4.8125 -0.453125 C 4.320312 -0.0546875 3.617188 0.140625 2.703125 0.140625 C 2.398438 0.140625 2.085938 0.109375 1.765625 0.046875 C 1.441406 -0.015625 1.109375 -0.101562 0.765625 -0.21875 L 0.765625 -1.171875 C 1.035156 -1.015625 1.332031 -0.894531 1.65625 -0.8125 C 1.988281 -0.726562 2.332031 -0.6875 2.6875 -0.6875 C 3.300781 -0.6875 3.769531 -0.804688 4.09375 -1.046875 C 4.414062 -1.296875 4.578125 -1.65625 4.578125 -2.125 C 4.578125 -2.550781 4.425781 -2.882812 4.125 -3.125 C 3.820312 -3.363281 3.40625 -3.484375 2.875 -3.484375 L 2.015625 -3.484375 L 2.015625 -4.296875 L 2.90625 -4.296875 C 3.394531 -4.296875 3.765625 -4.394531 4.015625 -4.59375 C 4.273438 -4.789062 4.40625 -5.070312 4.40625 -5.4375 C 4.40625 -5.800781 4.269531 -6.082031 4 -6.28125 C 3.738281 -6.488281 3.363281 -6.59375 2.875 -6.59375 C 2.601562 -6.59375 2.3125 -6.5625 2 -6.5 C 1.6875 -6.445312 1.347656 -6.359375 0.984375 -6.234375 L 0.984375 -7.109375 C 1.359375 -7.210938 1.707031 -7.289062 2.03125 -7.34375 C 2.363281 -7.394531 2.671875 -7.421875 2.953125 -7.421875 C 3.703125 -7.421875 4.296875 -7.25 4.734375 -6.90625 C 5.171875 -6.570312 5.390625 -6.113281 5.390625 -5.53125 C 5.390625 -5.125 5.273438 -4.78125 5.046875 -4.5 C 4.816406 -4.226562 4.488281 -4.039062 4.0625 -3.9375 Z M 4.0625 -3.9375 "/>
</symbol>
<symbol overflow="visible" id="glyph0-4">
<path style="stroke:none;" d="M 3.78125 -6.4375 L 1.296875 -2.546875 L 3.78125 -2.546875 Z M 3.515625 -7.296875 L 4.765625 -7.296875 L 4.765625 -2.546875 L 5.796875 -2.546875 L 5.796875 -1.71875 L 4.765625 -1.71875 L 4.765625 0 L 3.78125 0 L 3.78125 -1.71875 L 0.484375 -1.71875 L 0.484375 -2.671875 Z M 3.515625 -7.296875 "/>
</symbol>
<symbol overflow="visible" id="glyph0-5">
<path style="stroke:none;" d="M 1.078125 -7.296875 L 4.953125 -7.296875 L 4.953125 -6.453125 L 1.984375 -6.453125 L 1.984375 -4.671875 C 2.128906 -4.722656 2.269531 -4.757812 2.40625 -4.78125 C 2.550781 -4.800781 2.695312 -4.8125 2.84375 -4.8125 C 3.65625 -4.8125 4.296875 -4.585938 4.765625 -4.140625 C 5.242188 -3.703125 5.484375 -3.101562 5.484375 -2.34375 C 5.484375 -1.550781 5.238281 -0.9375 4.75 -0.5 C 4.269531 -0.0703125 3.582031 0.140625 2.6875 0.140625 C 2.382812 0.140625 2.070312 0.113281 1.75 0.0625 C 1.4375 0.0078125 1.109375 -0.0664062 0.765625 -0.171875 L 0.765625 -1.15625 C 1.066406 -1 1.375 -0.878906 1.6875 -0.796875 C 2 -0.722656 2.328125 -0.6875 2.671875 -0.6875 C 3.234375 -0.6875 3.675781 -0.832031 4 -1.125 C 4.332031 -1.425781 4.5 -1.832031 4.5 -2.34375 C 4.5 -2.84375 4.332031 -3.238281 4 -3.53125 C 3.675781 -3.832031 3.234375 -3.984375 2.671875 -3.984375 C 2.410156 -3.984375 2.144531 -3.953125 1.875 -3.890625 C 1.613281 -3.835938 1.347656 -3.75 1.078125 -3.625 Z M 1.078125 -7.296875 "/>
</symbol>
<symbol overflow="visible" id="glyph0-6">
<path style="stroke:none;" d="M 3.171875 -6.640625 C 2.671875 -6.640625 2.289062 -6.390625 2.03125 -5.890625 C 1.78125 -5.390625 1.65625 -4.640625 1.65625 -3.640625 C 1.65625 -2.640625 1.78125 -1.890625 2.03125 -1.390625 C 2.289062 -0.890625 2.671875 -0.640625 3.171875 -0.640625 C 3.691406 -0.640625 4.078125 -0.890625 4.328125 -1.390625 C 4.585938 -1.890625 4.71875 -2.640625 4.71875 -3.640625 C 4.71875 -4.640625 4.585938 -5.390625 4.328125 -5.890625 C 4.078125 -6.390625 3.691406 -6.640625 3.171875 -6.640625 Z M 3.171875 -7.421875 C 3.992188 -7.421875 4.617188 -7.097656 5.046875 -6.453125 C 5.484375 -5.804688 5.703125 -4.867188 5.703125 -3.640625 C 5.703125 -2.410156 5.484375 -1.472656 5.046875 -0.828125 C 4.617188 -0.179688 3.992188 0.140625 3.171875 0.140625 C 2.359375 0.140625 1.734375 -0.179688 1.296875 -0.828125 C 0.867188 -1.472656 0.65625 -2.410156 0.65625 -3.640625 C 0.65625 -4.867188 0.867188 -5.804688 1.296875 -6.453125 C 1.734375 -7.097656 2.359375 -7.421875 3.171875 -7.421875 Z M 3.171875 -7.421875 "/>
</symbol>
<symbol overflow="visible" id="glyph0-7">
<path style="stroke:none;" d="M 1.0625 -1.234375 L 2.09375 -1.234375 L 2.09375 0 L 1.0625 0 Z M 1.0625 -1.234375 "/>
</symbol>
<symbol overflow="visible" id="glyph0-8">
<path style="stroke:none;" d="M 0.828125 -7.296875 L 5.515625 -7.296875 L 5.515625 -6.875 L 2.859375 0 L 1.828125 0 L 4.328125 -6.453125 L 0.828125 -6.453125 Z M 0.828125 -7.296875 "/>
</symbol>
<symbol overflow="visible" id="glyph0-9">
<path style="stroke:none;" d="M 0.9375 -5.46875 L 1.84375 -5.46875 L 1.84375 0 L 0.9375 0 Z M 0.9375 -7.59375 L 1.84375 -7.59375 L 1.84375 -6.453125 L 0.9375 -6.453125 Z M 0.9375 -7.59375 "/>
</symbol>
<symbol overflow="visible" id="glyph0-10">
<path style="stroke:none;" d="M 0.484375 -3.140625 L 3.125 -3.140625 L 3.125 -2.34375 L 0.484375 -2.34375 Z M 0.484375 -3.140625 "/>
</symbol>
<symbol overflow="visible" id="glyph0-11">
<path style="stroke:none;" d="M 4.4375 -3.421875 C 4.644531 -3.347656 4.847656 -3.191406 5.046875 -2.953125 C 5.253906 -2.722656 5.457031 -2.40625 5.65625 -2 L 6.65625 0 L 5.59375 0 L 4.671875 -1.875 C 4.429688 -2.363281 4.195312 -2.6875 3.96875 -2.84375 C 3.738281 -3 3.429688 -3.078125 3.046875 -3.078125 L 1.96875 -3.078125 L 1.96875 0 L 0.984375 0 L 0.984375 -7.296875 L 3.203125 -7.296875 C 4.035156 -7.296875 4.65625 -7.117188 5.0625 -6.765625 C 5.476562 -6.421875 5.6875 -5.894531 5.6875 -5.1875 C 5.6875 -4.726562 5.578125 -4.347656 5.359375 -4.046875 C 5.148438 -3.742188 4.84375 -3.535156 4.4375 -3.421875 Z M 1.96875 -6.484375 L 1.96875 -3.890625 L 3.203125 -3.890625 C 3.679688 -3.890625 4.039062 -4 4.28125 -4.21875 C 4.53125 -4.4375 4.65625 -4.757812 4.65625 -5.1875 C 4.65625 -5.613281 4.53125 -5.9375 4.28125 -6.15625 C 4.039062 -6.375 3.679688 -6.484375 3.203125 -6.484375 Z M 1.96875 -6.484375 "/>
</symbol>
<symbol overflow="visible" id="glyph0-12">
<path style="stroke:none;" d="M 2.859375 0 L 0.078125 -7.296875 L 1.109375 -7.296875 L 3.421875 -1.15625 L 5.734375 -7.296875 L 6.765625 -7.296875 L 3.984375 0 Z M 2.859375 0 "/>
</symbol>
<symbol overflow="visible" id="glyph0-13">
<path style="stroke:none;" d="M -0.03125 -7.296875 L 6.140625 -7.296875 L 6.140625 -6.453125 L 3.546875 -6.453125 L 3.546875 0 L 2.5625 0 L 2.5625 -6.453125 L -0.03125 -6.453125 Z M -0.03125 -7.296875 "/>
</symbol>
<symbol overflow="visible" id="glyph0-14">
<path style="stroke:none;" d="M 3.0625 -4.84375 C 2.582031 -4.84375 2.203125 -4.65625 1.921875 -4.28125 C 1.640625 -3.90625 1.5 -3.390625 1.5 -2.734375 C 1.5 -2.078125 1.632812 -1.5625 1.90625 -1.1875 C 2.1875 -0.8125 2.570312 -0.625 3.0625 -0.625 C 3.539062 -0.625 3.921875 -0.8125 4.203125 -1.1875 C 4.484375 -1.5625 4.625 -2.078125 4.625 -2.734375 C 4.625 -3.378906 4.484375 -3.890625 4.203125 -4.265625 C 3.921875 -4.648438 3.539062 -4.84375 3.0625 -4.84375 Z M 3.0625 -5.59375 C 3.84375 -5.59375 4.457031 -5.335938 4.90625 -4.828125 C 5.351562 -4.328125 5.578125 -3.628906 5.578125 -2.734375 C 5.578125 -1.835938 5.351562 -1.132812 4.90625 -0.625 C 4.457031 -0.113281 3.84375 0.140625 3.0625 0.140625 C 2.28125 0.140625 1.664062 -0.113281 1.21875 -0.625 C 0.769531 -1.132812 0.546875 -1.835938 0.546875 -2.734375 C 0.546875 -3.628906 0.769531 -4.328125 1.21875 -4.828125 C 1.664062 -5.335938 2.28125 -5.59375 3.0625 -5.59375 Z M 3.0625 -5.59375 "/>
</symbol>
<symbol overflow="visible" id="glyph0-15">
<path style="stroke:none;" d="M 0.9375 -7.59375 L 1.84375 -7.59375 L 1.84375 0 L 0.9375 0 Z M 0.9375 -7.59375 "/>
</symbol>
<symbol overflow="visible" id="glyph0-16">
<path style="stroke:none;" d="M 3.421875 -2.75 C 2.703125 -2.75 2.203125 -2.664062 1.921875 -2.5 C 1.640625 -2.332031 1.5 -2.050781 1.5 -1.65625 C 1.5 -1.332031 1.601562 -1.078125 1.8125 -0.890625 C 2.019531 -0.703125 2.304688 -0.609375 2.671875 -0.609375 C 3.171875 -0.609375 3.570312 -0.785156 3.875 -1.140625 C 4.175781 -1.492188 4.328125 -1.960938 4.328125 -2.546875 L 4.328125 -2.75 Z M 5.21875 -3.125 L 5.21875 0 L 4.328125 0 L 4.328125 -0.828125 C 4.117188 -0.492188 3.859375 -0.25 3.546875 -0.09375 C 3.242188 0.0625 2.875 0.140625 2.4375 0.140625 C 1.875 0.140625 1.425781 -0.015625 1.09375 -0.328125 C 0.757812 -0.640625 0.59375 -1.0625 0.59375 -1.59375 C 0.59375 -2.207031 0.800781 -2.671875 1.21875 -2.984375 C 1.632812 -3.296875 2.25 -3.453125 3.0625 -3.453125 L 4.328125 -3.453125 L 4.328125 -3.546875 C 4.328125 -3.953125 4.1875 -4.269531 3.90625 -4.5 C 3.632812 -4.726562 3.253906 -4.84375 2.765625 -4.84375 C 2.453125 -4.84375 2.144531 -4.800781 1.84375 -4.71875 C 1.550781 -4.644531 1.269531 -4.535156 1 -4.390625 L 1 -5.21875 C 1.332031 -5.34375 1.648438 -5.4375 1.953125 -5.5 C 2.265625 -5.5625 2.566406 -5.59375 2.859375 -5.59375 C 3.648438 -5.59375 4.238281 -5.390625 4.625 -4.984375 C 5.019531 -4.578125 5.21875 -3.957031 5.21875 -3.125 Z M 5.21875 -3.125 "/>
</symbol>
<symbol overflow="visible" id="glyph0-17">
<path style="stroke:none;" d="M 4.109375 -4.625 C 4.003906 -4.6875 3.894531 -4.726562 3.78125 -4.75 C 3.664062 -4.78125 3.535156 -4.796875 3.390625 -4.796875 C 2.878906 -4.796875 2.488281 -4.628906 2.21875 -4.296875 C 1.945312 -3.972656 1.8125 -3.5 1.8125 -2.875 L 1.8125 0 L 0.90625 0 L 0.90625 -5.46875 L 1.8125 -5.46875 L 1.8125 -4.625 C 2 -4.957031 2.242188 -5.203125 2.546875 -5.359375 C 2.847656 -5.515625 3.21875 -5.59375 3.65625 -5.59375 C 3.71875 -5.59375 3.785156 -5.585938 3.859375 -5.578125 C 3.929688 -5.578125 4.015625 -5.566406 4.109375 -5.546875 Z M 4.109375 -4.625 "/>
</symbol>
<symbol overflow="visible" id="glyph0-18">
<path style="stroke:none;" d="M 4.546875 -2.796875 C 4.546875 -3.453125 4.410156 -3.957031 4.140625 -4.3125 C 3.867188 -4.664062 3.492188 -4.84375 3.015625 -4.84375 C 2.523438 -4.84375 2.144531 -4.664062 1.875 -4.3125 C 1.613281 -3.957031 1.484375 -3.453125 1.484375 -2.796875 C 1.484375 -2.148438 1.613281 -1.644531 1.875 -1.28125 C 2.144531 -0.925781 2.523438 -0.75 3.015625 -0.75 C 3.492188 -0.75 3.867188 -0.925781 4.140625 -1.28125 C 4.410156 -1.644531 4.546875 -2.148438 4.546875 -2.796875 Z M 5.4375 -0.671875 C 5.4375 0.253906 5.226562 0.941406 4.8125 1.390625 C 4.40625 1.847656 3.773438 2.078125 2.921875 2.078125 C 2.609375 2.078125 2.3125 2.050781 2.03125 2 C 1.75 1.957031 1.476562 1.890625 1.21875 1.796875 L 1.21875 0.921875 C 1.476562 1.066406 1.734375 1.171875 1.984375 1.234375 C 2.242188 1.304688 2.507812 1.34375 2.78125 1.34375 C 3.363281 1.34375 3.800781 1.1875 4.09375 0.875 C 4.394531 0.570312 4.546875 0.109375 4.546875 -0.515625 L 4.546875 -0.96875 C 4.359375 -0.644531 4.117188 -0.398438 3.828125 -0.234375 C 3.535156 -0.078125 3.1875 0 2.78125 0 C 2.113281 0 1.570312 -0.253906 1.15625 -0.765625 C 0.75 -1.273438 0.546875 -1.953125 0.546875 -2.796875 C 0.546875 -3.640625 0.75 -4.316406 1.15625 -4.828125 C 1.570312 -5.335938 2.113281 -5.59375 2.78125 -5.59375 C 3.1875 -5.59375 3.535156 -5.515625 3.828125 -5.359375 C 4.117188 -5.203125 4.359375 -4.960938 4.546875 -4.640625 L 4.546875 -5.46875 L 5.4375 -5.46875 Z M 5.4375 -0.671875 "/>
</symbol>
<symbol overflow="visible" id="glyph0-19">
<path style="stroke:none;" d="M 0.421875 -5.46875 L 1.3125 -5.46875 L 2.4375 -1.203125 L 3.5625 -5.46875 L 4.625 -5.46875 L 5.75 -1.203125 L 6.859375 -5.46875 L 7.765625 -5.46875 L 6.328125 0 L 5.265625 0 L 4.09375 -4.484375 L 2.90625 0 L 1.84375 0 Z M 0.421875 -5.46875 "/>
</symbol>
<symbol overflow="visible" id="glyph1-0">
<path style="stroke:none;" d="M 0.59375 2.125 L 0.59375 -8.46875 L 6.59375 -8.46875 L 6.59375 2.125 Z M 1.265625 1.453125 L 5.9375 1.453125 L 5.9375 -7.78125 L 1.265625 -7.78125 Z M 1.265625 1.453125 "/>
</symbol>
<symbol overflow="visible" id="glyph1-1">
<path style="stroke:none;" d="M -0.03125 -8.75 L 7.359375 -8.75 L 7.359375 -7.75 L 4.265625 -7.75 L 4.265625 0 L 3.078125 0 L 3.078125 -7.75 L -0.03125 -7.75 Z M -0.03125 -8.75 "/>
</symbol>
<symbol overflow="visible" id="glyph1-2">
<path style="stroke:none;" d="M 1.125 -6.5625 L 2.203125 -6.5625 L 2.203125 0 L 1.125 0 Z M 1.125 -9.125 L 2.203125 -9.125 L 2.203125 -7.75 L 1.125 -7.75 Z M 1.125 -9.125 "/>
</symbol>
<symbol overflow="visible" id="glyph1-3">
<path style="stroke:none;" d="M 6.234375 -5.296875 C 6.503906 -5.785156 6.828125 -6.144531 7.203125 -6.375 C 7.578125 -6.601562 8.019531 -6.71875 8.53125 -6.71875 C 9.21875 -6.71875 9.742188 -6.476562 10.109375 -6 C 10.484375 -5.519531 10.671875 -4.84375 10.671875 -3.96875 L 10.671875 0 L 9.59375 0 L 9.59375 -3.921875 C 9.59375 -4.554688 9.476562 -5.023438 9.25 -5.328125 C 9.03125 -5.628906 8.691406 -5.78125 8.234375 -5.78125 C 7.671875 -5.78125 7.226562 -5.59375 6.90625 -5.21875 C 6.582031 -4.851562 6.421875 -4.347656 6.421875 -3.703125 L 6.421875 0 L 5.34375 0 L 5.34375 -3.921875 C 5.34375 -4.554688 5.226562 -5.023438 5 -5.328125 C 4.78125 -5.628906 4.4375 -5.78125 3.96875 -5.78125 C 3.414062 -5.78125 2.976562 -5.59375 2.65625 -5.21875 C 2.332031 -4.851562 2.171875 -4.347656 2.171875 -3.703125 L 2.171875 0 L 1.09375 0 L 1.09375 -6.5625 L 2.171875 -6.5625 L 2.171875 -5.546875 C 2.421875 -5.941406 2.71875 -6.234375 3.0625 -6.421875 C 3.40625 -6.617188 3.8125 -6.71875 4.28125 -6.71875 C 4.757812 -6.71875 5.164062 -6.597656 5.5 -6.359375 C 5.832031 -6.117188 6.078125 -5.765625 6.234375 -5.296875 Z M 6.234375 -5.296875 "/>
</symbol>
<symbol overflow="visible" id="glyph1-4">
<path style="stroke:none;" d="M 6.75 -3.546875 L 6.75 -3.03125 L 1.78125 -3.03125 C 1.832031 -2.28125 2.054688 -1.710938 2.453125 -1.328125 C 2.859375 -0.941406 3.414062 -0.75 4.125 -0.75 C 4.539062 -0.75 4.941406 -0.796875 5.328125 -0.890625 C 5.722656 -0.992188 6.113281 -1.148438 6.5 -1.359375 L 6.5 -0.328125 C 6.101562 -0.171875 5.703125 -0.0507812 5.296875 0.03125 C 4.890625 0.125 4.476562 0.171875 4.0625 0.171875 C 3.019531 0.171875 2.191406 -0.128906 1.578125 -0.734375 C 0.960938 -1.347656 0.65625 -2.175781 0.65625 -3.21875 C 0.65625 -4.289062 0.945312 -5.140625 1.53125 -5.765625 C 2.113281 -6.398438 2.894531 -6.71875 3.875 -6.71875 C 4.757812 -6.71875 5.457031 -6.429688 5.96875 -5.859375 C 6.488281 -5.296875 6.75 -4.523438 6.75 -3.546875 Z M 5.671875 -3.875 C 5.660156 -4.457031 5.492188 -4.925781 5.171875 -5.28125 C 4.847656 -5.632812 4.421875 -5.8125 3.890625 -5.8125 C 3.285156 -5.8125 2.800781 -5.640625 2.4375 -5.296875 C 2.082031 -4.953125 1.878906 -4.472656 1.828125 -3.859375 Z M 5.671875 -3.875 "/>
</symbol>
<symbol overflow="visible" id="glyph1-5">
<path style="stroke:none;" d=""/>
</symbol>
<symbol overflow="visible" id="glyph1-6">
<path style="stroke:none;" d="M 5.84375 -3.28125 C 5.84375 -4.070312 5.675781 -4.691406 5.34375 -5.140625 C 5.019531 -5.585938 4.578125 -5.8125 4.015625 -5.8125 C 3.441406 -5.8125 2.988281 -5.585938 2.65625 -5.140625 C 2.332031 -4.691406 2.171875 -4.070312 2.171875 -3.28125 C 2.171875 -2.488281 2.332031 -1.863281 2.65625 -1.40625 C 2.988281 -0.957031 3.441406 -0.734375 4.015625 -0.734375 C 4.578125 -0.734375 5.019531 -0.957031 5.34375 -1.40625 C 5.675781 -1.863281 5.84375 -2.488281 5.84375 -3.28125 Z M 2.171875 -5.5625 C 2.398438 -5.957031 2.6875 -6.25 3.03125 -6.4375 C 3.375 -6.625 3.785156 -6.71875 4.265625 -6.71875 C 5.066406 -6.71875 5.71875 -6.398438 6.21875 -5.765625 C 6.71875 -5.140625 6.96875 -4.3125 6.96875 -3.28125 C 6.96875 -2.25 6.71875 -1.414062 6.21875 -0.78125 C 5.71875 -0.144531 5.066406 0.171875 4.265625 0.171875 C 3.785156 0.171875 3.375 0.078125 3.03125 -0.109375 C 2.6875 -0.304688 2.398438 -0.597656 2.171875 -0.984375 L 2.171875 0 L 1.09375 0 L 1.09375 -9.125 L 2.171875 -9.125 Z M 2.171875 -5.5625 "/>
</symbol>
<symbol overflow="visible" id="glyph1-7">
<path style="stroke:none;" d="M 2.203125 -8.421875 L 2.203125 -6.5625 L 4.421875 -6.5625 L 4.421875 -5.71875 L 2.203125 -5.71875 L 2.203125 -2.15625 C 2.203125 -1.625 2.273438 -1.28125 2.421875 -1.125 C 2.566406 -0.976562 2.863281 -0.90625 3.3125 -0.90625 L 4.421875 -0.90625 L 4.421875 0 L 3.3125 0 C 2.476562 0 1.898438 -0.15625 1.578125 -0.46875 C 1.265625 -0.78125 1.109375 -1.34375 1.109375 -2.15625 L 1.109375 -5.71875 L 0.328125 -5.71875 L 0.328125 -6.5625 L 1.109375 -6.5625 L 1.109375 -8.421875 Z M 2.203125 -8.421875 "/>
</symbol>
<symbol overflow="visible" id="glyph1-8">
<path style="stroke:none;" d="M 0.5 -6.5625 L 1.578125 -6.5625 L 2.9375 -1.4375 L 4.265625 -6.5625 L 5.546875 -6.5625 L 6.890625 -1.4375 L 8.234375 -6.5625 L 9.3125 -6.5625 L 7.59375 0 L 6.328125 0 L 4.90625 -5.375 L 3.5 0 L 2.21875 0 Z M 0.5 -6.5625 "/>
</symbol>
<symbol overflow="visible" id="glyph1-9">
<path style="stroke:none;" d="M 6.59375 -3.96875 L 6.59375 0 L 5.515625 0 L 5.515625 -3.921875 C 5.515625 -4.546875 5.390625 -5.007812 5.140625 -5.3125 C 4.898438 -5.625 4.539062 -5.78125 4.0625 -5.78125 C 3.476562 -5.78125 3.015625 -5.59375 2.671875 -5.21875 C 2.335938 -4.851562 2.171875 -4.347656 2.171875 -3.703125 L 2.171875 0 L 1.09375 0 L 1.09375 -6.5625 L 2.171875 -6.5625 L 2.171875 -5.546875 C 2.429688 -5.941406 2.734375 -6.234375 3.078125 -6.421875 C 3.429688 -6.617188 3.835938 -6.71875 4.296875 -6.71875 C 5.046875 -6.71875 5.613281 -6.484375 6 -6.015625 C 6.394531 -5.554688 6.59375 -4.875 6.59375 -3.96875 Z M 6.59375 -3.96875 "/>
</symbol>
<symbol overflow="visible" id="glyph1-10">
<path style="stroke:none;" d="M 3.671875 -5.8125 C 3.097656 -5.8125 2.640625 -5.582031 2.296875 -5.125 C 1.960938 -4.675781 1.796875 -4.0625 1.796875 -3.28125 C 1.796875 -2.488281 1.960938 -1.867188 2.296875 -1.421875 C 2.628906 -0.972656 3.085938 -0.75 3.671875 -0.75 C 4.242188 -0.75 4.695312 -0.972656 5.03125 -1.421875 C 5.375 -1.878906 5.546875 -2.5 5.546875 -3.28125 C 5.546875 -4.050781 5.375 -4.664062 5.03125 -5.125 C 4.695312 -5.582031 4.242188 -5.8125 3.671875 -5.8125 Z M 3.671875 -6.71875 C 4.609375 -6.71875 5.34375 -6.410156 5.875 -5.796875 C 6.414062 -5.191406 6.6875 -4.351562 6.6875 -3.28125 C 6.6875 -2.207031 6.414062 -1.363281 5.875 -0.75 C 5.34375 -0.132812 4.609375 0.171875 3.671875 0.171875 C 2.734375 0.171875 1.992188 -0.132812 1.453125 -0.75 C 0.921875 -1.363281 0.65625 -2.207031 0.65625 -3.28125 C 0.65625 -4.351562 0.921875 -5.191406 1.453125 -5.796875 C 1.992188 -6.410156 2.734375 -6.71875 3.671875 -6.71875 Z M 3.671875 -6.71875 "/>
</symbol>
<symbol overflow="visible" id="glyph1-11">
<path style="stroke:none;" d="M 0.359375 -6.5625 L 1.5 -6.5625 L 3.546875 -1.0625 L 5.609375 -6.5625 L 6.75 -6.5625 L 4.28125 0 L 2.8125 0 Z M 0.359375 -6.5625 "/>
</symbol>
<symbol overflow="visible" id="glyph1-12">
<path style="stroke:none;" d="M 5.3125 -6.375 L 5.3125 -5.34375 C 5.007812 -5.5 4.691406 -5.613281 4.359375 -5.6875 C 4.035156 -5.769531 3.695312 -5.8125 3.34375 -5.8125 C 2.8125 -5.8125 2.410156 -5.726562 2.140625 -5.5625 C 1.867188 -5.40625 1.734375 -5.160156 1.734375 -4.828125 C 1.734375 -4.578125 1.828125 -4.378906 2.015625 -4.234375 C 2.210938 -4.097656 2.601562 -3.96875 3.1875 -3.84375 L 3.546875 -3.75 C 4.316406 -3.59375 4.863281 -3.363281 5.1875 -3.0625 C 5.507812 -2.757812 5.671875 -2.34375 5.671875 -1.8125 C 5.671875 -1.195312 5.425781 -0.710938 4.9375 -0.359375 C 4.457031 -0.00390625 3.796875 0.171875 2.953125 0.171875 C 2.597656 0.171875 2.226562 0.132812 1.84375 0.0625 C 1.46875 0 1.070312 -0.0976562 0.65625 -0.234375 L 0.65625 -1.359375 C 1.050781 -1.148438 1.441406 -0.992188 1.828125 -0.890625 C 2.210938 -0.785156 2.597656 -0.734375 2.984375 -0.734375 C 3.484375 -0.734375 3.867188 -0.816406 4.140625 -0.984375 C 4.421875 -1.160156 4.5625 -1.410156 4.5625 -1.734375 C 4.5625 -2.023438 4.460938 -2.25 4.265625 -2.40625 C 4.066406 -2.5625 3.632812 -2.710938 2.96875 -2.859375 L 2.59375 -2.9375 C 1.925781 -3.082031 1.441406 -3.300781 1.140625 -3.59375 C 0.847656 -3.882812 0.703125 -4.28125 0.703125 -4.78125 C 0.703125 -5.40625 0.921875 -5.882812 1.359375 -6.21875 C 1.796875 -6.550781 2.414062 -6.71875 3.21875 -6.71875 C 3.613281 -6.71875 3.988281 -6.6875 4.34375 -6.625 C 4.695312 -6.570312 5.019531 -6.488281 5.3125 -6.375 Z M 5.3125 -6.375 "/>
</symbol>
<symbol overflow="visible" id="glyph1-13">
<path style="stroke:none;" d="M 3.71875 -9.109375 C 3.195312 -8.210938 2.804688 -7.320312 2.546875 -6.4375 C 2.296875 -5.5625 2.171875 -4.671875 2.171875 -3.765625 C 2.171875 -2.867188 2.296875 -1.976562 2.546875 -1.09375 C 2.804688 -0.207031 3.195312 0.679688 3.71875 1.578125 L 2.78125 1.578125 C 2.195312 0.660156 1.757812 -0.238281 1.46875 -1.125 C 1.175781 -2.007812 1.03125 -2.890625 1.03125 -3.765625 C 1.03125 -4.640625 1.175781 -5.515625 1.46875 -6.390625 C 1.757812 -7.273438 2.195312 -8.179688 2.78125 -9.109375 Z M 3.71875 -9.109375 "/>
</symbol>
<symbol overflow="visible" id="glyph1-14">
<path style="stroke:none;" d="M 1.125 -9.125 L 2.203125 -9.125 L 2.203125 0 L 1.125 0 Z M 1.125 -9.125 "/>
</symbol>
<symbol overflow="visible" id="glyph1-15">
<path style="stroke:none;" d="M 5.859375 -6.3125 L 5.859375 -5.296875 C 5.546875 -5.472656 5.238281 -5.601562 4.9375 -5.6875 C 4.632812 -5.769531 4.328125 -5.8125 4.015625 -5.8125 C 3.304688 -5.8125 2.757812 -5.585938 2.375 -5.140625 C 1.988281 -4.703125 1.796875 -4.082031 1.796875 -3.28125 C 1.796875 -2.476562 1.988281 -1.851562 2.375 -1.40625 C 2.757812 -0.96875 3.304688 -0.75 4.015625 -0.75 C 4.328125 -0.75 4.632812 -0.789062 4.9375 -0.875 C 5.238281 -0.957031 5.546875 -1.082031 5.859375 -1.25 L 5.859375 -0.25 C 5.554688 -0.113281 5.242188 -0.0078125 4.921875 0.0625 C 4.597656 0.132812 4.253906 0.171875 3.890625 0.171875 C 2.898438 0.171875 2.113281 -0.132812 1.53125 -0.75 C 0.945312 -1.375 0.65625 -2.21875 0.65625 -3.28125 C 0.65625 -4.34375 0.945312 -5.179688 1.53125 -5.796875 C 2.125 -6.410156 2.9375 -6.71875 3.96875 -6.71875 C 4.289062 -6.71875 4.609375 -6.679688 4.921875 -6.609375 C 5.242188 -6.546875 5.554688 -6.445312 5.859375 -6.3125 Z M 5.859375 -6.3125 "/>
</symbol>
<symbol overflow="visible" id="glyph1-16">
<path style="stroke:none;" d="M 5.453125 -5.5625 L 5.453125 -9.125 L 6.53125 -9.125 L 6.53125 0 L 5.453125 0 L 5.453125 -0.984375 C 5.222656 -0.597656 4.9375 -0.304688 4.59375 -0.109375 C 4.25 0.078125 3.832031 0.171875 3.34375 0.171875 C 2.550781 0.171875 1.90625 -0.144531 1.40625 -0.78125 C 0.90625 -1.414062 0.65625 -2.25 0.65625 -3.28125 C 0.65625 -4.3125 0.90625 -5.140625 1.40625 -5.765625 C 1.90625 -6.398438 2.550781 -6.71875 3.34375 -6.71875 C 3.832031 -6.71875 4.25 -6.625 4.59375 -6.4375 C 4.9375 -6.25 5.222656 -5.957031 5.453125 -5.5625 Z M 1.78125 -3.28125 C 1.78125 -2.488281 1.941406 -1.863281 2.265625 -1.40625 C 2.585938 -0.957031 3.035156 -0.734375 3.609375 -0.734375 C 4.179688 -0.734375 4.628906 -0.957031 4.953125 -1.40625 C 5.285156 -1.863281 5.453125 -2.488281 5.453125 -3.28125 C 5.453125 -4.070312 5.285156 -4.691406 4.953125 -5.140625 C 4.628906 -5.585938 4.179688 -5.8125 3.609375 -5.8125 C 3.035156 -5.8125 2.585938 -5.585938 2.265625 -5.140625 C 1.941406 -4.691406 1.78125 -4.070312 1.78125 -3.28125 Z M 1.78125 -3.28125 "/>
</symbol>
<symbol overflow="visible" id="glyph1-17">
<path style="stroke:none;" d="M 0.96875 -9.109375 L 1.90625 -9.109375 C 2.488281 -8.179688 2.925781 -7.273438 3.21875 -6.390625 C 3.507812 -5.515625 3.65625 -4.640625 3.65625 -3.765625 C 3.65625 -2.890625 3.507812 -2.007812 3.21875 -1.125 C 2.925781 -0.238281 2.488281 0.660156 1.90625 1.578125 L 0.96875 1.578125 C 1.476562 0.679688 1.863281 -0.207031 2.125 -1.09375 C 2.382812 -1.976562 2.515625 -2.867188 2.515625 -3.765625 C 2.515625 -4.671875 2.382812 -5.5625 2.125 -6.4375 C 1.863281 -7.320312 1.476562 -8.210938 0.96875 -9.109375 Z M 0.96875 -9.109375 "/>
</symbol>
<symbol overflow="visible" id="glyph2-0">
<path style="stroke:none;" d="M 2.125 -0.59375 L -8.46875 -0.59375 L -8.46875 -6.59375 L 2.125 -6.59375 Z M 1.453125 -1.265625 L 1.453125 -5.9375 L -7.78125 -5.9375 L -7.78125 -1.265625 Z M 1.453125 -1.265625 "/>
</symbol>
<symbol overflow="visible" id="glyph2-1">
<path style="stroke:none;" d="M -8.46875 -6.421875 L -7.3125 -6.421875 C -7.519531 -5.972656 -7.675781 -5.546875 -7.78125 -5.140625 C -7.894531 -4.742188 -7.953125 -4.363281 -7.953125 -4 C -7.953125 -3.351562 -7.828125 -2.851562 -7.578125 -2.5 C -7.328125 -2.15625 -6.96875 -1.984375 -6.5 -1.984375 C -6.113281 -1.984375 -5.820312 -2.097656 -5.625 -2.328125 C -5.425781 -2.554688 -5.269531 -3 -5.15625 -3.65625 L -5 -4.359375 C -4.832031 -5.242188 -4.535156 -5.894531 -4.109375 -6.3125 C -3.691406 -6.738281 -3.128906 -6.953125 -2.421875 -6.953125 C -1.566406 -6.953125 -0.921875 -6.664062 -0.484375 -6.09375 C -0.046875 -5.53125 0.171875 -4.695312 0.171875 -3.59375 C 0.171875 -3.1875 0.125 -2.75 0.03125 -2.28125 C -0.0625 -1.8125 -0.203125 -1.328125 -0.390625 -0.828125 L -1.609375 -0.828125 C -1.335938 -1.304688 -1.132812 -1.773438 -1 -2.234375 C -0.863281 -2.703125 -0.796875 -3.15625 -0.796875 -3.59375 C -0.796875 -4.269531 -0.925781 -4.789062 -1.1875 -5.15625 C -1.457031 -5.53125 -1.835938 -5.71875 -2.328125 -5.71875 C -2.753906 -5.71875 -3.085938 -5.582031 -3.328125 -5.3125 C -3.578125 -5.050781 -3.757812 -4.617188 -3.875 -4.015625 L -4.015625 -3.296875 C -4.191406 -2.410156 -4.46875 -1.769531 -4.84375 -1.375 C -5.21875 -0.988281 -5.738281 -0.796875 -6.40625 -0.796875 C -7.1875 -0.796875 -7.796875 -1.066406 -8.234375 -1.609375 C -8.679688 -2.148438 -8.90625 -2.898438 -8.90625 -3.859375 C -8.90625 -4.273438 -8.867188 -4.691406 -8.796875 -5.109375 C -8.722656 -5.535156 -8.613281 -5.972656 -8.46875 -6.421875 Z M -8.46875 -6.421875 "/>
</symbol>
<symbol overflow="visible" id="glyph2-2">
<path style="stroke:none;" d="M -9.125 -1.125 L -9.125 -2.203125 L 0 -2.203125 L 0 -1.125 Z M -9.125 -1.125 "/>
</symbol>
<symbol overflow="visible" id="glyph2-3">
<path style="stroke:none;" d="M -5.8125 -3.671875 C -5.8125 -3.097656 -5.582031 -2.640625 -5.125 -2.296875 C -4.675781 -1.960938 -4.0625 -1.796875 -3.28125 -1.796875 C -2.488281 -1.796875 -1.867188 -1.960938 -1.421875 -2.296875 C -0.972656 -2.628906 -0.75 -3.085938 -0.75 -3.671875 C -0.75 -4.242188 -0.972656 -4.695312 -1.421875 -5.03125 C -1.878906 -5.375 -2.5 -5.546875 -3.28125 -5.546875 C -4.050781 -5.546875 -4.664062 -5.375 -5.125 -5.03125 C -5.582031 -4.695312 -5.8125 -4.242188 -5.8125 -3.671875 Z M -6.71875 -3.671875 C -6.71875 -4.609375 -6.410156 -5.34375 -5.796875 -5.875 C -5.191406 -6.414062 -4.351562 -6.6875 -3.28125 -6.6875 C -2.207031 -6.6875 -1.363281 -6.414062 -0.75 -5.875 C -0.132812 -5.34375 0.171875 -4.609375 0.171875 -3.671875 C 0.171875 -2.734375 -0.132812 -1.992188 -0.75 -1.453125 C -1.363281 -0.921875 -2.207031 -0.65625 -3.28125 -0.65625 C -4.351562 -0.65625 -5.191406 -0.921875 -5.796875 -1.453125 C -6.410156 -1.992188 -6.71875 -2.734375 -6.71875 -3.671875 Z M -6.71875 -3.671875 "/>
</symbol>
<symbol overflow="visible" id="glyph2-4">
<path style="stroke:none;" d="M -6.5625 -0.5 L -6.5625 -1.578125 L -1.4375 -2.9375 L -6.5625 -4.265625 L -6.5625 -5.546875 L -1.4375 -6.890625 L -6.5625 -8.234375 L -6.5625 -9.3125 L 0 -7.59375 L 0 -6.328125 L -5.375 -4.90625 L 0 -3.5 L 0 -2.21875 Z M -6.5625 -0.5 "/>
</symbol>
<symbol overflow="visible" id="glyph2-5">
<path style="stroke:none;" d="M -5.5625 -5.453125 L -9.125 -5.453125 L -9.125 -6.53125 L 0 -6.53125 L 0 -5.453125 L -0.984375 -5.453125 C -0.597656 -5.222656 -0.304688 -4.9375 -0.109375 -4.59375 C 0.078125 -4.25 0.171875 -3.832031 0.171875 -3.34375 C 0.171875 -2.550781 -0.144531 -1.90625 -0.78125 -1.40625 C -1.414062 -0.90625 -2.25 -0.65625 -3.28125 -0.65625 C -4.3125 -0.65625 -5.140625 -0.90625 -5.765625 -1.40625 C -6.398438 -1.90625 -6.71875 -2.550781 -6.71875 -3.34375 C -6.71875 -3.832031 -6.625 -4.25 -6.4375 -4.59375 C -6.25 -4.9375 -5.957031 -5.222656 -5.5625 -5.453125 Z M -3.28125 -1.78125 C -2.488281 -1.78125 -1.863281 -1.941406 -1.40625 -2.265625 C -0.957031 -2.585938 -0.734375 -3.035156 -0.734375 -3.609375 C -0.734375 -4.179688 -0.957031 -4.628906 -1.40625 -4.953125 C -1.863281 -5.285156 -2.488281 -5.453125 -3.28125 -5.453125 C -4.070312 -5.453125 -4.691406 -5.285156 -5.140625 -4.953125 C -5.585938 -4.628906 -5.8125 -4.179688 -5.8125 -3.609375 C -5.8125 -3.035156 -5.585938 -2.585938 -5.140625 -2.265625 C -4.691406 -1.941406 -4.070312 -1.78125 -3.28125 -1.78125 Z M -3.28125 -1.78125 "/>
</symbol>
<symbol overflow="visible" id="glyph2-6">
<path style="stroke:none;" d="M -3.96875 -6.59375 L 0 -6.59375 L 0 -5.515625 L -3.921875 -5.515625 C -4.546875 -5.515625 -5.007812 -5.390625 -5.3125 -5.140625 C -5.625 -4.898438 -5.78125 -4.539062 -5.78125 -4.0625 C -5.78125 -3.476562 -5.59375 -3.015625 -5.21875 -2.671875 C -4.851562 -2.335938 -4.347656 -2.171875 -3.703125 -2.171875 L 0 -2.171875 L 0 -1.09375 L -6.5625 -1.09375 L -6.5625 -2.171875 L -5.546875 -2.171875 C -5.941406 -2.429688 -6.234375 -2.734375 -6.421875 -3.078125 C -6.617188 -3.429688 -6.71875 -3.835938 -6.71875 -4.296875 C -6.71875 -5.046875 -6.484375 -5.613281 -6.015625 -6 C -5.554688 -6.394531 -4.875 -6.59375 -3.96875 -6.59375 Z M -3.96875 -6.59375 "/>
</symbol>
<symbol overflow="visible" id="glyph2-7">
<path style="stroke:none;" d=""/>
</symbol>
<symbol overflow="visible" id="glyph2-8">
<path style="stroke:none;" d="M -9.125 -4.453125 L -8.21875 -4.453125 L -8.21875 -3.421875 C -8.21875 -3.035156 -8.140625 -2.765625 -7.984375 -2.609375 C -7.828125 -2.460938 -7.546875 -2.390625 -7.140625 -2.390625 L -6.5625 -2.390625 L -6.5625 -4.171875 L -5.71875 -4.171875 L -5.71875 -2.390625 L 0 -2.390625 L 0 -1.3125 L -5.71875 -1.3125 L -5.71875 -0.28125 L -6.5625 -0.28125 L -6.5625 -1.3125 L -7.015625 -1.3125 C -7.742188 -1.3125 -8.273438 -1.476562 -8.609375 -1.8125 C -8.953125 -2.15625 -9.125 -2.695312 -9.125 -3.4375 Z M -9.125 -4.453125 "/>
</symbol>
<symbol overflow="visible" id="glyph2-9">
<path style="stroke:none;" d="M -3.296875 -4.109375 C -3.296875 -3.242188 -3.195312 -2.640625 -3 -2.296875 C -2.800781 -1.960938 -2.460938 -1.796875 -1.984375 -1.796875 C -1.597656 -1.796875 -1.289062 -1.921875 -1.0625 -2.171875 C -0.84375 -2.429688 -0.734375 -2.773438 -0.734375 -3.203125 C -0.734375 -3.804688 -0.941406 -4.285156 -1.359375 -4.640625 C -1.785156 -5.003906 -2.351562 -5.1875 -3.0625 -5.1875 L -3.296875 -5.1875 Z M -3.75 -6.265625 L 0 -6.265625 L 0 -5.1875 L -1 -5.1875 C -0.601562 -4.9375 -0.304688 -4.628906 -0.109375 -4.265625 C 0.078125 -3.898438 0.171875 -3.453125 0.171875 -2.921875 C 0.171875 -2.242188 -0.015625 -1.707031 -0.390625 -1.3125 C -0.773438 -0.914062 -1.28125 -0.71875 -1.90625 -0.71875 C -2.644531 -0.71875 -3.203125 -0.960938 -3.578125 -1.453125 C -3.953125 -1.953125 -4.140625 -2.691406 -4.140625 -3.671875 L -4.140625 -5.1875 L -4.25 -5.1875 C -4.75 -5.1875 -5.132812 -5.019531 -5.40625 -4.6875 C -5.675781 -4.363281 -5.8125 -3.910156 -5.8125 -3.328125 C -5.8125 -2.953125 -5.765625 -2.582031 -5.671875 -2.21875 C -5.578125 -1.863281 -5.441406 -1.523438 -5.265625 -1.203125 L -6.265625 -1.203125 C -6.421875 -1.597656 -6.535156 -1.976562 -6.609375 -2.34375 C -6.679688 -2.71875 -6.71875 -3.082031 -6.71875 -3.4375 C -6.71875 -4.382812 -6.472656 -5.09375 -5.984375 -5.5625 C -5.492188 -6.03125 -4.75 -6.265625 -3.75 -6.265625 Z M -3.75 -6.265625 "/>
</symbol>
<symbol overflow="visible" id="glyph2-10">
<path style="stroke:none;" d="M -6.3125 -5.859375 L -5.296875 -5.859375 C -5.472656 -5.546875 -5.601562 -5.238281 -5.6875 -4.9375 C -5.769531 -4.632812 -5.8125 -4.328125 -5.8125 -4.015625 C -5.8125 -3.304688 -5.585938 -2.757812 -5.140625 -2.375 C -4.703125 -1.988281 -4.082031 -1.796875 -3.28125 -1.796875 C -2.476562 -1.796875 -1.851562 -1.988281 -1.40625 -2.375 C -0.96875 -2.757812 -0.75 -3.304688 -0.75 -4.015625 C -0.75 -4.328125 -0.789062 -4.632812 -0.875 -4.9375 C -0.957031 -5.238281 -1.082031 -5.546875 -1.25 -5.859375 L -0.25 -5.859375 C -0.113281 -5.554688 -0.0078125 -5.242188 0.0625 -4.921875 C 0.132812 -4.597656 0.171875 -4.253906 0.171875 -3.890625 C 0.171875 -2.898438 -0.132812 -2.113281 -0.75 -1.53125 C -1.375 -0.945312 -2.21875 -0.65625 -3.28125 -0.65625 C -4.34375 -0.65625 -5.179688 -0.945312 -5.796875 -1.53125 C -6.410156 -2.125 -6.71875 -2.9375 -6.71875 -3.96875 C -6.71875 -4.289062 -6.679688 -4.609375 -6.609375 -4.921875 C -6.546875 -5.242188 -6.445312 -5.554688 -6.3125 -5.859375 Z M -6.3125 -5.859375 "/>
</symbol>
<symbol overflow="visible" id="glyph2-11">
<path style="stroke:none;" d="M -8.421875 -2.203125 L -6.5625 -2.203125 L -6.5625 -4.421875 L -5.71875 -4.421875 L -5.71875 -2.203125 L -2.15625 -2.203125 C -1.625 -2.203125 -1.28125 -2.273438 -1.125 -2.421875 C -0.976562 -2.566406 -0.90625 -2.863281 -0.90625 -3.3125 L -0.90625 -4.421875 L 0 -4.421875 L 0 -3.3125 C 0 -2.476562 -0.15625 -1.898438 -0.46875 -1.578125 C -0.78125 -1.265625 -1.34375 -1.109375 -2.15625 -1.109375 L -5.71875 -1.109375 L -5.71875 -0.328125 L -6.5625 -0.328125 L -6.5625 -1.109375 L -8.421875 -1.109375 Z M -8.421875 -2.203125 "/>
</symbol>
<symbol overflow="visible" id="glyph2-12">
<path style="stroke:none;" d="M -5.5625 -4.9375 C -5.625 -4.8125 -5.671875 -4.675781 -5.703125 -4.53125 C -5.742188 -4.394531 -5.765625 -4.238281 -5.765625 -4.0625 C -5.765625 -3.457031 -5.566406 -2.988281 -5.171875 -2.65625 C -4.773438 -2.332031 -4.203125 -2.171875 -3.453125 -2.171875 L 0 -2.171875 L 0 -1.09375 L -6.5625 -1.09375 L -6.5625 -2.171875 L -5.546875 -2.171875 C -5.941406 -2.398438 -6.234375 -2.695312 -6.421875 -3.0625 C -6.617188 -3.425781 -6.71875 -3.867188 -6.71875 -4.390625 C -6.71875 -4.460938 -6.710938 -4.539062 -6.703125 -4.625 C -6.691406 -4.71875 -6.675781 -4.816406 -6.65625 -4.921875 Z M -5.5625 -4.9375 "/>
</symbol>
<symbol overflow="visible" id="glyph3-0">
<path style="stroke:none;" d="M 0.703125 2.46875 L 0.703125 -9.875 L 7.703125 -9.875 L 7.703125 2.46875 Z M 1.484375 1.703125 L 6.921875 1.703125 L 6.921875 -9.078125 L 1.484375 -9.078125 Z M 1.484375 1.703125 "/>
</symbol>
<symbol overflow="visible" id="glyph3-1">
<path style="stroke:none;" d="M 5.515625 -9.265625 C 4.515625 -9.265625 3.71875 -8.890625 3.125 -8.140625 C 2.539062 -7.398438 2.25 -6.382812 2.25 -5.09375 C 2.25 -3.8125 2.539062 -2.796875 3.125 -2.046875 C 3.71875 -1.296875 4.515625 -0.921875 5.515625 -0.921875 C 6.515625 -0.921875 7.304688 -1.296875 7.890625 -2.046875 C 8.484375 -2.796875 8.78125 -3.8125 8.78125 -5.09375 C 8.78125 -6.382812 8.484375 -7.398438 7.890625 -8.140625 C 7.304688 -8.890625 6.515625 -9.265625 5.515625 -9.265625 Z M 5.515625 -10.390625 C 6.941406 -10.390625 8.082031 -9.910156 8.9375 -8.953125 C 9.800781 -7.992188 10.234375 -6.707031 10.234375 -5.09375 C 10.234375 -3.488281 9.800781 -2.203125 8.9375 -1.234375 C 8.082031 -0.273438 6.941406 0.203125 5.515625 0.203125 C 4.078125 0.203125 2.925781 -0.273438 2.0625 -1.234375 C 1.207031 -2.191406 0.78125 -3.476562 0.78125 -5.09375 C 0.78125 -6.707031 1.207031 -7.992188 2.0625 -8.953125 C 2.925781 -9.910156 4.078125 -10.390625 5.515625 -10.390625 Z M 5.515625 -10.390625 "/>
</symbol>
<symbol overflow="visible" id="glyph3-2">
<path style="stroke:none;" d="M 0.421875 -7.65625 L 1.75 -7.65625 L 4.140625 -1.234375 L 6.53125 -7.65625 L 7.875 -7.65625 L 5 0 L 3.28125 0 Z M 0.421875 -7.65625 "/>
</symbol>
<symbol overflow="visible" id="glyph3-3">
<path style="stroke:none;" d="M 7.875 -4.140625 L 7.875 -3.53125 L 2.078125 -3.53125 C 2.140625 -2.664062 2.398438 -2.003906 2.859375 -1.546875 C 3.328125 -1.097656 3.976562 -0.875 4.8125 -0.875 C 5.300781 -0.875 5.769531 -0.929688 6.21875 -1.046875 C 6.675781 -1.160156 7.128906 -1.335938 7.578125 -1.578125 L 7.578125 -0.390625 C 7.117188 -0.203125 6.648438 -0.0546875 6.171875 0.046875 C 5.703125 0.148438 5.226562 0.203125 4.75 0.203125 C 3.519531 0.203125 2.546875 -0.148438 1.828125 -0.859375 C 1.117188 -1.578125 0.765625 -2.539062 0.765625 -3.75 C 0.765625 -5.007812 1.101562 -6.003906 1.78125 -6.734375 C 2.457031 -7.472656 3.375 -7.84375 4.53125 -7.84375 C 5.5625 -7.84375 6.375 -7.507812 6.96875 -6.84375 C 7.570312 -6.1875 7.875 -5.285156 7.875 -4.140625 Z M 6.609375 -4.515625 C 6.597656 -5.203125 6.40625 -5.75 6.03125 -6.15625 C 5.65625 -6.570312 5.160156 -6.78125 4.546875 -6.78125 C 3.835938 -6.78125 3.269531 -6.578125 2.84375 -6.171875 C 2.425781 -5.773438 2.1875 -5.21875 2.125 -4.5 Z M 6.609375 -4.515625 "/>
</symbol>
<symbol overflow="visible" id="glyph3-4">
<path style="stroke:none;" d="M 5.75 -6.484375 C 5.613281 -6.566406 5.460938 -6.625 5.296875 -6.65625 C 5.128906 -6.695312 4.945312 -6.71875 4.75 -6.71875 C 4.03125 -6.71875 3.476562 -6.484375 3.09375 -6.015625 C 2.71875 -5.554688 2.53125 -4.894531 2.53125 -4.03125 L 2.53125 0 L 1.265625 0 L 1.265625 -7.65625 L 2.53125 -7.65625 L 2.53125 -6.46875 C 2.800781 -6.9375 3.144531 -7.28125 3.5625 -7.5 C 3.988281 -7.726562 4.503906 -7.84375 5.109375 -7.84375 C 5.203125 -7.84375 5.300781 -7.835938 5.40625 -7.828125 C 5.507812 -7.816406 5.625 -7.796875 5.75 -7.765625 Z M 5.75 -6.484375 "/>
</symbol>
<symbol overflow="visible" id="glyph3-5">
<path style="stroke:none;" d="M 7.6875 -4.625 L 7.6875 0 L 6.421875 0 L 6.421875 -4.578125 C 6.421875 -5.304688 6.28125 -5.847656 6 -6.203125 C 5.71875 -6.566406 5.296875 -6.75 4.734375 -6.75 C 4.054688 -6.75 3.519531 -6.53125 3.125 -6.09375 C 2.726562 -5.664062 2.53125 -5.078125 2.53125 -4.328125 L 2.53125 0 L 1.265625 0 L 1.265625 -10.640625 L 2.53125 -10.640625 L 2.53125 -6.46875 C 2.832031 -6.925781 3.1875 -7.269531 3.59375 -7.5 C 4.007812 -7.726562 4.484375 -7.84375 5.015625 -7.84375 C 5.890625 -7.84375 6.550781 -7.566406 7 -7.015625 C 7.457031 -6.472656 7.6875 -5.675781 7.6875 -4.625 Z M 7.6875 -4.625 "/>
</symbol>
<symbol overflow="visible" id="glyph3-6">
<path style="stroke:none;" d="M 4.796875 -3.84375 C 3.785156 -3.84375 3.082031 -3.726562 2.6875 -3.5 C 2.289062 -3.269531 2.09375 -2.875 2.09375 -2.3125 C 2.09375 -1.863281 2.238281 -1.507812 2.53125 -1.25 C 2.832031 -0.988281 3.234375 -0.859375 3.734375 -0.859375 C 4.429688 -0.859375 4.988281 -1.101562 5.40625 -1.59375 C 5.832031 -2.09375 6.046875 -2.75 6.046875 -3.5625 L 6.046875 -3.84375 Z M 7.3125 -4.375 L 7.3125 0 L 6.046875 0 L 6.046875 -1.15625 C 5.765625 -0.695312 5.40625 -0.351562 4.96875 -0.125 C 4.539062 0.09375 4.019531 0.203125 3.40625 0.203125 C 2.625 0.203125 2 -0.015625 1.53125 -0.453125 C 1.070312 -0.898438 0.84375 -1.492188 0.84375 -2.234375 C 0.84375 -3.085938 1.128906 -3.734375 1.703125 -4.171875 C 2.285156 -4.609375 3.144531 -4.828125 4.28125 -4.828125 L 6.046875 -4.828125 L 6.046875 -4.953125 C 6.046875 -5.535156 5.851562 -5.984375 5.46875 -6.296875 C 5.09375 -6.617188 4.5625 -6.78125 3.875 -6.78125 C 3.4375 -6.78125 3.007812 -6.722656 2.59375 -6.609375 C 2.175781 -6.503906 1.78125 -6.347656 1.40625 -6.140625 L 1.40625 -7.3125 C 1.863281 -7.488281 2.304688 -7.617188 2.734375 -7.703125 C 3.171875 -7.796875 3.59375 -7.84375 4 -7.84375 C 5.113281 -7.84375 5.941406 -7.554688 6.484375 -6.984375 C 7.035156 -6.410156 7.3125 -5.539062 7.3125 -4.375 Z M 7.3125 -4.375 "/>
</symbol>
<symbol overflow="visible" id="glyph3-7">
<path style="stroke:none;" d="M 6.359375 -6.5 L 6.359375 -10.640625 L 7.609375 -10.640625 L 7.609375 0 L 6.359375 0 L 6.359375 -1.15625 C 6.097656 -0.695312 5.765625 -0.351562 5.359375 -0.125 C 4.953125 0.09375 4.46875 0.203125 3.90625 0.203125 C 2.976562 0.203125 2.222656 -0.164062 1.640625 -0.90625 C 1.054688 -1.644531 0.765625 -2.617188 0.765625 -3.828125 C 0.765625 -5.023438 1.054688 -5.992188 1.640625 -6.734375 C 2.222656 -7.472656 2.976562 -7.84375 3.90625 -7.84375 C 4.46875 -7.84375 4.953125 -7.726562 5.359375 -7.5 C 5.765625 -7.28125 6.097656 -6.945312 6.359375 -6.5 Z M 2.078125 -3.828125 C 2.078125 -2.898438 2.265625 -2.171875 2.640625 -1.640625 C 3.023438 -1.117188 3.550781 -0.859375 4.21875 -0.859375 C 4.875 -0.859375 5.394531 -1.117188 5.78125 -1.640625 C 6.164062 -2.171875 6.359375 -2.898438 6.359375 -3.828125 C 6.359375 -4.742188 6.164062 -5.460938 5.78125 -5.984375 C 5.394531 -6.515625 4.875 -6.78125 4.21875 -6.78125 C 3.550781 -6.78125 3.023438 -6.515625 2.640625 -5.984375 C 2.265625 -5.460938 2.078125 -4.742188 2.078125 -3.828125 Z M 2.078125 -3.828125 "/>
</symbol>
<symbol overflow="visible" id="glyph3-8">
<path style="stroke:none;" d=""/>
</symbol>
<symbol overflow="visible" id="glyph3-9">
<path style="stroke:none;" d="M 4.28125 -6.78125 C 3.613281 -6.78125 3.082031 -6.515625 2.6875 -5.984375 C 2.289062 -5.460938 2.09375 -4.742188 2.09375 -3.828125 C 2.09375 -2.910156 2.285156 -2.1875 2.671875 -1.65625 C 3.066406 -1.132812 3.601562 -0.875 4.28125 -0.875 C 4.957031 -0.875 5.488281 -1.132812 5.875 -1.65625 C 6.269531 -2.1875 6.46875 -2.910156 6.46875 -3.828125 C 6.46875 -4.734375 6.269531 -5.453125 5.875 -5.984375 C 5.488281 -6.515625 4.957031 -6.78125 4.28125 -6.78125 Z M 4.28125 -7.84375 C 5.375 -7.84375 6.234375 -7.484375 6.859375 -6.765625 C 7.484375 -6.054688 7.796875 -5.078125 7.796875 -3.828125 C 7.796875 -2.566406 7.484375 -1.578125 6.859375 -0.859375 C 6.234375 -0.148438 5.375 0.203125 4.28125 0.203125 C 3.1875 0.203125 2.328125 -0.148438 1.703125 -0.859375 C 1.078125 -1.578125 0.765625 -2.566406 0.765625 -3.828125 C 0.765625 -5.078125 1.078125 -6.054688 1.703125 -6.765625 C 2.328125 -7.484375 3.1875 -7.84375 4.28125 -7.84375 Z M 4.28125 -7.84375 "/>
</symbol>
<symbol overflow="visible" id="glyph3-10">
<path style="stroke:none;" d="M 5.203125 -10.640625 L 5.203125 -9.59375 L 4 -9.59375 C 3.539062 -9.59375 3.222656 -9.5 3.046875 -9.3125 C 2.878906 -9.132812 2.796875 -8.804688 2.796875 -8.328125 L 2.796875 -7.65625 L 4.859375 -7.65625 L 4.859375 -6.671875 L 2.796875 -6.671875 L 2.796875 0 L 1.53125 0 L 1.53125 -6.671875 L 0.328125 -6.671875 L 0.328125 -7.65625 L 1.53125 -7.65625 L 1.53125 -8.1875 C 1.53125 -9.039062 1.726562 -9.660156 2.125 -10.046875 C 2.519531 -10.441406 3.144531 -10.640625 4 -10.640625 Z M 5.203125 -10.640625 "/>
</symbol>
<symbol overflow="visible" id="glyph3-11">
<path style="stroke:none;" d="M 2.53125 -1.15625 L 2.53125 2.90625 L 1.265625 2.90625 L 1.265625 -7.65625 L 2.53125 -7.65625 L 2.53125 -6.5 C 2.800781 -6.945312 3.132812 -7.28125 3.53125 -7.5 C 3.9375 -7.726562 4.421875 -7.84375 4.984375 -7.84375 C 5.910156 -7.84375 6.664062 -7.472656 7.25 -6.734375 C 7.832031 -5.992188 8.125 -5.023438 8.125 -3.828125 C 8.125 -2.617188 7.832031 -1.644531 7.25 -0.90625 C 6.664062 -0.164062 5.910156 0.203125 4.984375 0.203125 C 4.421875 0.203125 3.9375 0.09375 3.53125 -0.125 C 3.132812 -0.351562 2.800781 -0.695312 2.53125 -1.15625 Z M 6.8125 -3.828125 C 6.8125 -4.742188 6.617188 -5.460938 6.234375 -5.984375 C 5.859375 -6.515625 5.335938 -6.78125 4.671875 -6.78125 C 4.003906 -6.78125 3.476562 -6.515625 3.09375 -5.984375 C 2.71875 -5.460938 2.53125 -4.742188 2.53125 -3.828125 C 2.53125 -2.898438 2.71875 -2.171875 3.09375 -1.640625 C 3.476562 -1.117188 4.003906 -0.859375 4.671875 -0.859375 C 5.335938 -0.859375 5.859375 -1.117188 6.234375 -1.640625 C 6.617188 -2.171875 6.8125 -2.898438 6.8125 -3.828125 Z M 6.8125 -3.828125 "/>
</symbol>
<symbol overflow="visible" id="glyph3-12">
<path style="stroke:none;" d="M 2.5625 -9.828125 L 2.5625 -7.65625 L 5.15625 -7.65625 L 5.15625 -6.671875 L 2.5625 -6.671875 L 2.5625 -2.515625 C 2.5625 -1.898438 2.644531 -1.5 2.8125 -1.3125 C 2.988281 -1.132812 3.335938 -1.046875 3.859375 -1.046875 L 5.15625 -1.046875 L 5.15625 0 L 3.859375 0 C 2.890625 0 2.21875 -0.179688 1.84375 -0.546875 C 1.476562 -0.910156 1.296875 -1.566406 1.296875 -2.515625 L 1.296875 -6.671875 L 0.375 -6.671875 L 0.375 -7.65625 L 1.296875 -7.65625 L 1.296875 -9.828125 Z M 2.5625 -9.828125 "/>
</symbol>
<symbol overflow="visible" id="glyph3-13">
<path style="stroke:none;" d="M 4.5 0.71875 C 4.144531 1.625 3.796875 2.210938 3.453125 2.484375 C 3.117188 2.765625 2.671875 2.90625 2.109375 2.90625 L 1.109375 2.90625 L 1.109375 1.859375 L 1.84375 1.859375 C 2.1875 1.859375 2.453125 1.773438 2.640625 1.609375 C 2.835938 1.453125 3.050781 1.066406 3.28125 0.453125 L 3.515625 -0.125 L 0.421875 -7.65625 L 1.75 -7.65625 L 4.140625 -1.671875 L 6.53125 -7.65625 L 7.875 -7.65625 Z M 4.5 0.71875 "/>
</symbol>
<symbol overflow="visible" id="glyph3-14">
<path style="stroke:none;" d="M 0.6875 -4.390625 L 4.375 -4.390625 L 4.375 -3.28125 L 0.6875 -3.28125 Z M 0.6875 -4.390625 "/>
</symbol>
<symbol overflow="visible" id="glyph3-15">
<path style="stroke:none;" d="M 6.828125 -7.359375 L 6.828125 -6.1875 C 6.472656 -6.382812 6.113281 -6.53125 5.75 -6.625 C 5.394531 -6.726562 5.035156 -6.78125 4.671875 -6.78125 C 3.859375 -6.78125 3.222656 -6.519531 2.765625 -6 C 2.316406 -5.476562 2.09375 -4.753906 2.09375 -3.828125 C 2.09375 -2.890625 2.316406 -2.160156 2.765625 -1.640625 C 3.222656 -1.128906 3.859375 -0.875 4.671875 -0.875 C 5.035156 -0.875 5.394531 -0.921875 5.75 -1.015625 C 6.113281 -1.109375 6.472656 -1.253906 6.828125 -1.453125 L 6.828125 -0.296875 C 6.472656 -0.128906 6.109375 -0.00390625 5.734375 0.078125 C 5.359375 0.160156 4.960938 0.203125 4.546875 0.203125 C 3.390625 0.203125 2.46875 -0.15625 1.78125 -0.875 C 1.101562 -1.601562 0.765625 -2.585938 0.765625 -3.828125 C 0.765625 -5.066406 1.109375 -6.046875 1.796875 -6.765625 C 2.484375 -7.484375 3.425781 -7.84375 4.625 -7.84375 C 5.007812 -7.84375 5.382812 -7.800781 5.75 -7.71875 C 6.125 -7.644531 6.484375 -7.523438 6.828125 -7.359375 Z M 6.828125 -7.359375 "/>
</symbol>
<symbol overflow="visible" id="glyph3-16">
<path style="stroke:none;" d="M 1.265625 -10.640625 L 2.53125 -10.640625 L 2.53125 -4.359375 L 6.296875 -7.65625 L 7.890625 -7.65625 L 3.828125 -4.078125 L 8.0625 0 L 6.421875 0 L 2.53125 -3.734375 L 2.53125 0 L 1.265625 0 Z M 1.265625 -10.640625 "/>
</symbol>
<symbol overflow="visible" id="glyph3-17">
<path style="stroke:none;" d="M 1.3125 -7.65625 L 2.578125 -7.65625 L 2.578125 0 L 1.3125 0 Z M 1.3125 -10.640625 L 2.578125 -10.640625 L 2.578125 -9.046875 L 1.3125 -9.046875 Z M 1.3125 -10.640625 "/>
</symbol>
<symbol overflow="visible" id="glyph3-18">
<path style="stroke:none;" d="M 7.6875 -4.625 L 7.6875 0 L 6.421875 0 L 6.421875 -4.578125 C 6.421875 -5.304688 6.28125 -5.847656 6 -6.203125 C 5.71875 -6.566406 5.296875 -6.75 4.734375 -6.75 C 4.054688 -6.75 3.519531 -6.53125 3.125 -6.09375 C 2.726562 -5.664062 2.53125 -5.078125 2.53125 -4.328125 L 2.53125 0 L 1.265625 0 L 1.265625 -7.65625 L 2.53125 -7.65625 L 2.53125 -6.46875 C 2.832031 -6.925781 3.1875 -7.269531 3.59375 -7.5 C 4.007812 -7.726562 4.484375 -7.84375 5.015625 -7.84375 C 5.890625 -7.84375 6.550781 -7.566406 7 -7.015625 C 7.457031 -6.472656 7.6875 -5.675781 7.6875 -4.625 Z M 7.6875 -4.625 "/>
</symbol>
<symbol overflow="visible" id="glyph3-19">
<path style="stroke:none;" d="M 6.359375 -3.921875 C 6.359375 -4.828125 6.171875 -5.53125 5.796875 -6.03125 C 5.421875 -6.53125 4.894531 -6.78125 4.21875 -6.78125 C 3.539062 -6.78125 3.015625 -6.53125 2.640625 -6.03125 C 2.265625 -5.53125 2.078125 -4.828125 2.078125 -3.921875 C 2.078125 -3.015625 2.265625 -2.304688 2.640625 -1.796875 C 3.015625 -1.296875 3.539062 -1.046875 4.21875 -1.046875 C 4.894531 -1.046875 5.421875 -1.296875 5.796875 -1.796875 C 6.171875 -2.304688 6.359375 -3.015625 6.359375 -3.921875 Z M 7.609375 -0.953125 C 7.609375 0.347656 7.316406 1.316406 6.734375 1.953125 C 6.160156 2.585938 5.28125 2.90625 4.09375 2.90625 C 3.644531 2.90625 3.222656 2.875 2.828125 2.8125 C 2.441406 2.75 2.066406 2.648438 1.703125 2.515625 L 1.703125 1.28125 C 2.066406 1.488281 2.425781 1.640625 2.78125 1.734375 C 3.144531 1.828125 3.515625 1.875 3.890625 1.875 C 4.710938 1.875 5.328125 1.65625 5.734375 1.21875 C 6.148438 0.789062 6.359375 0.144531 6.359375 -0.71875 L 6.359375 -1.34375 C 6.097656 -0.894531 5.765625 -0.554688 5.359375 -0.328125 C 4.953125 -0.109375 4.46875 0 3.90625 0 C 2.96875 0 2.207031 -0.351562 1.625 -1.0625 C 1.050781 -1.78125 0.765625 -2.734375 0.765625 -3.921875 C 0.765625 -5.097656 1.050781 -6.046875 1.625 -6.765625 C 2.207031 -7.484375 2.96875 -7.84375 3.90625 -7.84375 C 4.46875 -7.84375 4.953125 -7.726562 5.359375 -7.5 C 5.765625 -7.28125 6.097656 -6.945312 6.359375 -6.5 L 6.359375 -7.65625 L 7.609375 -7.65625 Z M 7.609375 -0.953125 "/>
</symbol>
<symbol overflow="visible" id="glyph3-20">
<path style="stroke:none;" d="M 0.59375 -7.65625 L 1.84375 -7.65625 L 3.421875 -1.6875 L 4.984375 -7.65625 L 6.46875 -7.65625 L 8.046875 -1.6875 L 9.609375 -7.65625 L 10.859375 -7.65625 L 8.859375 0 L 7.375 0 L 5.734375 -6.28125 L 4.078125 0 L 2.59375 0 Z M 0.59375 -7.65625 "/>
</symbol>
<symbol overflow="visible" id="glyph3-21">
<path style="stroke:none;" d="M 6.21875 -4.78125 C 6.507812 -4.6875 6.796875 -4.472656 7.078125 -4.140625 C 7.359375 -3.816406 7.640625 -3.367188 7.921875 -2.796875 L 9.328125 0 L 7.84375 0 L 6.53125 -2.625 C 6.195312 -3.300781 5.867188 -3.75 5.546875 -3.96875 C 5.234375 -4.195312 4.804688 -4.3125 4.265625 -4.3125 L 2.75 -4.3125 L 2.75 0 L 1.375 0 L 1.375 -10.203125 L 4.484375 -10.203125 C 5.648438 -10.203125 6.519531 -9.957031 7.09375 -9.46875 C 7.675781 -8.988281 7.96875 -8.253906 7.96875 -7.265625 C 7.96875 -6.617188 7.816406 -6.082031 7.515625 -5.65625 C 7.210938 -5.238281 6.78125 -4.945312 6.21875 -4.78125 Z M 2.75 -9.078125 L 2.75 -5.453125 L 4.484375 -5.453125 C 5.148438 -5.453125 5.65625 -5.601562 6 -5.90625 C 6.34375 -6.21875 6.515625 -6.671875 6.515625 -7.265625 C 6.515625 -7.859375 6.34375 -8.304688 6 -8.609375 C 5.65625 -8.921875 5.148438 -9.078125 4.484375 -9.078125 Z M 2.75 -9.078125 "/>
</symbol>
<symbol overflow="visible" id="glyph3-22">
<path style="stroke:none;" d="M 4 0 L 0.109375 -10.203125 L 1.546875 -10.203125 L 4.78125 -1.609375 L 8.03125 -10.203125 L 9.46875 -10.203125 L 5.578125 0 Z M 4 0 "/>
</symbol>
<symbol overflow="visible" id="glyph3-23">
<path style="stroke:none;" d="M -0.046875 -10.203125 L 8.59375 -10.203125 L 8.59375 -9.046875 L 4.96875 -9.046875 L 4.96875 0 L 3.578125 0 L 3.578125 -9.046875 L -0.046875 -9.046875 Z M -0.046875 -10.203125 "/>
</symbol>
<symbol overflow="visible" id="glyph3-24">
<path style="stroke:none;" d="M 1.3125 -10.640625 L 2.578125 -10.640625 L 2.578125 0 L 1.3125 0 Z M 1.3125 -10.640625 "/>
</symbol>
</g>
<clipPath id="clip1">
  <path d="M 40.53125 24.152344 L 610 24.152344 L 610 253 L 40.53125 253 Z M 40.53125 24.152344 "/>
</clipPath>
<clipPath id="clip2">
  <path d="M 40.53125 221 L 610 221 L 610 222 L 40.53125 222 Z M 40.53125 221 "/>
</clipPath>
<clipPath id="clip3">
  <path d="M 40.53125 200 L 610 200 L 610 201 L 40.53125 201 Z M 40.53125 200 "/>
</clipPath>
<clipPath id="clip4">
  <path d="M 40.53125 179 L 610 179 L 610 181 L 40.53125 181 Z M 40.53125 179 "/>
</clipPath>
<clipPath id="clip5">
  <path d="M 40.53125 158 L 610 158 L 610 160 L 40.53125 160 Z M 40.53125 158 "/>
</clipPath>
<clipPath id="clip6">
  <path d="M 40.53125 138 L 610 138 L 610 139 L 40.53125 139 Z M 40.53125 138 "/>
</clipPath>
<clipPath id="clip7">
  <path d="M 40.53125 34 L 610 34 L 610 35 L 40.53125 35 Z M 40.53125 34 "/>
</clipPath>
<clipPath id="clip8">
  <path d="M 66 24.152344 L 67 24.152344 L 67 253 L 66 253 Z M 66 24.152344 "/>
</clipPath>
<clipPath id="clip9">
  <path d="M 92 24.152344 L 93 24.152344 L 93 253 L 92 253 Z M 92 24.152344 "/>
</clipPath>
<clipPath id="clip10">
  <path d="M 117 24.152344 L 119 24.152344 L 119 253 L 117 253 Z M 117 24.152344 "/>
</clipPath>
<clipPath id="clip11">
  <path d="M 143 24.152344 L 145 24.152344 L 145 253 L 143 253 Z M 143 24.152344 "/>
</clipPath>
<clipPath id="clip12">
  <path d="M 169 24.152344 L 170 24.152344 L 170 253 L 169 253 Z M 169 24.152344 "/>
</clipPath>
<clipPath id="clip13">
  <path d="M 272 24.152344 L 274 24.152344 L 274 253 L 272 253 Z M 272 24.152344 "/>
</clipPath>
<clipPath id="clip14">
  <path d="M 376 24.152344 L 377 24.152344 L 377 253 L 376 253 Z M 376 24.152344 "/>
</clipPath>
<clipPath id="clip15">
  <path d="M 479 24.152344 L 481 24.152344 L 481 253 L 479 253 Z M 479 24.152344 "/>
</clipPath>
<clipPath id="clip16">
  <path d="M 583 24.152344 L 584 24.152344 L 584 253 L 583 253 Z M 583 24.152344 "/>
</clipPath>
<clipPath id="clip17">
  <path d="M 40.53125 24.152344 L 610 24.152344 L 610 253.472656 L 40.53125 253.472656 Z M 40.53125 24.152344 "/>
</clipPath>
</defs>
<g id="surface1">
<rect x="0" y="0" width="720" height="288" style="fill:rgb(100%,100%,100%);fill-opacity:1;stroke:none;"/>
<rect x="0" y="0" width="720" height="288" style="fill:rgb(100%,100%,100%);fill-opacity:1;stroke:none;"/>
<path style="fill:none;stroke-width:1.066978;stroke-linecap:round;stroke-linejoin:round;stroke:rgb(100%,100%,100%);stroke-opacity:1;stroke-miterlimit:10;" d="M 0 288 L 720 288 L 720 0 L 0 0 Z M 0 288 "/>
<g clip-path="url(#clip1)" clip-rule="nonzero">
<path style=" stroke:none;fill-rule:nonzero;fill:rgb(100%,100%,100%);fill-opacity:1;" d="M 40.53125 252.46875 L 609.070312 252.46875 L 609.070312 24.148438 L 40.53125 24.148438 Z M 40.53125 252.46875 "/>
</g>
<g clip-path="url(#clip2)" clip-rule="nonzero">
<path style="fill:none;stroke-width:0.426791;stroke-linecap:butt;stroke-linejoin:round;stroke:rgb(40%,40%,40%);stroke-opacity:1;stroke-miterlimit:10;" d="M 40.53125 221.335938 L 609.070312 221.335938 "/>
</g>
<g clip-path="url(#clip3)" clip-rule="nonzero">
<path style="fill:none;stroke-width:0.426791;stroke-linecap:butt;stroke-linejoin:round;stroke:rgb(40%,40%,40%);stroke-opacity:1;stroke-miterlimit:10;" d="M 40.53125 200.578125 L 609.070312 200.578125 "/>
</g>
<g clip-path="url(#clip4)" clip-rule="nonzero">
<path style="fill:none;stroke-width:0.426791;stroke-linecap:butt;stroke-linejoin:round;stroke:rgb(40%,40%,40%);stroke-opacity:1;stroke-miterlimit:10;" d="M 40.53125 179.824219 L 609.070312 179.824219 "/>
</g>
<g clip-path="url(#clip5)" clip-rule="nonzero">
<path style="fill:none;stroke-width:0.426791;stroke-linecap:butt;stroke-linejoin:round;stroke:rgb(40%,40%,40%);stroke-opacity:1;stroke-miterlimit:10;" d="M 40.53125 159.066406 L 609.070312 159.066406 "/>
</g>
<g clip-path="url(#clip6)" clip-rule="nonzero">
<path style="fill:none;stroke-width:0.426791;stroke-linecap:butt;stroke-linejoin:round;stroke:rgb(40%,40%,40%);stroke-opacity:1;stroke-miterlimit:10;" d="M 40.53125 138.308594 L 609.070312 138.308594 "/>
</g>
<g clip-path="url(#clip7)" clip-rule="nonzero">
<path style="fill:none;stroke-width:0.426791;stroke-linecap:butt;stroke-linejoin:round;stroke:rgb(40%,40%,40%);stroke-opacity:1;stroke-miterlimit:10;" d="M 40.53125 34.527344 L 609.070312 34.527344 "/>
</g>
<g clip-path="url(#clip8)" clip-rule="nonzero">
<path style="fill:none;stroke-width:0.426791;stroke-linecap:butt;stroke-linejoin:round;stroke:rgb(40%,40%,40%);stroke-opacity:1;stroke-miterlimit:10;" d="M 66.375 252.46875 L 66.375 24.152344 "/>
</g>
<g clip-path="url(#clip9)" clip-rule="nonzero">
<path style="fill:none;stroke-width:0.426791;stroke-linecap:butt;stroke-linejoin:round;stroke:rgb(40%,40%,40%);stroke-opacity:1;stroke-miterlimit:10;" d="M 92.214844 252.46875 L 92.214844 24.152344 "/>
</g>
<g clip-path="url(#clip10)" clip-rule="nonzero">
<path style="fill:none;stroke-width:0.426791;stroke-linecap:butt;stroke-linejoin:round;stroke:rgb(40%,40%,40%);stroke-opacity:1;stroke-miterlimit:10;" d="M 118.058594 252.46875 L 118.058594 24.152344 "/>
</g>
<g clip-path="url(#clip11)" clip-rule="nonzero">
<path style="fill:none;stroke-width:0.426791;stroke-linecap:butt;stroke-linejoin:round;stroke:rgb(40%,40%,40%);stroke-opacity:1;stroke-miterlimit:10;" d="M 143.902344 252.46875 L 143.902344 24.152344 "/>
</g>
<g clip-path="url(#clip12)" clip-rule="nonzero">
<path style="fill:none;stroke-width:0.426791;stroke-linecap:butt;stroke-linejoin:round;stroke:rgb(40%,40%,40%);stroke-opacity:1;stroke-miterlimit:10;" d="M 169.746094 252.46875 L 169.746094 24.152344 "/>
</g>
<g clip-path="url(#clip13)" clip-rule="nonzero">
<path style="fill:none;stroke-width:0.426791;stroke-linecap:butt;stroke-linejoin:round;stroke:rgb(40%,40%,40%);stroke-opacity:1;stroke-miterlimit:10;" d="M 273.113281 252.46875 L 273.113281 24.152344 "/>
</g>
<g clip-path="url(#clip14)" clip-rule="nonzero">
<path style="fill:none;stroke-width:0.426791;stroke-linecap:butt;stroke-linejoin:round;stroke:rgb(40%,40%,40%);stroke-opacity:1;stroke-miterlimit:10;" d="M 376.484375 252.46875 L 376.484375 24.152344 "/>
</g>
<g clip-path="url(#clip15)" clip-rule="nonzero">
<path style="fill:none;stroke-width:0.426791;stroke-linecap:butt;stroke-linejoin:round;stroke:rgb(40%,40%,40%);stroke-opacity:1;stroke-miterlimit:10;" d="M 479.855469 252.46875 L 479.855469 24.152344 "/>
</g>
<g clip-path="url(#clip16)" clip-rule="nonzero">
<path style="fill:none;stroke-width:0.426791;stroke-linecap:butt;stroke-linejoin:round;stroke:rgb(40%,40%,40%);stroke-opacity:1;stroke-miterlimit:10;" d="M 583.226562 252.46875 L 583.226562 24.152344 "/>
</g>
<path style=" stroke:none;fill-rule:nonzero;fill:rgb(38.039216%,61.176471%,100%);fill-opacity:1;" d="M 63.886719 223.824219 L 68.863281 223.824219 L 68.863281 218.847656 L 63.886719 218.847656 Z M 63.886719 223.824219 "/>
<path style=" stroke:none;fill-rule:nonzero;fill:rgb(38.039216%,61.176471%,100%);fill-opacity:1;" d="M 64.402344 223.824219 L 69.378906 223.824219 L 69.378906 218.847656 L 64.402344 218.847656 Z M 64.402344 223.824219 "/>
<path style=" stroke:none;fill-rule:nonzero;fill:rgb(38.039216%,61.176471%,100%);fill-opacity:1;" d="M 64.917969 223.824219 L 69.894531 223.824219 L 69.894531 218.847656 L 64.917969 218.847656 Z M 64.917969 223.824219 "/>
<path style=" stroke:none;fill-rule:nonzero;fill:rgb(97.254902%,46.27451%,42.745098%);fill-opacity:1;" d="M 71.445312 44.496094 C 71.445312 47.816406 66.46875 47.816406 66.46875 44.496094 C 66.46875 41.179688 71.445312 41.179688 71.445312 44.496094 "/>
<path style=" stroke:none;fill-rule:nonzero;fill:rgb(38.039216%,61.176471%,100%);fill-opacity:1;" d="M 66.46875 223.824219 L 71.445312 223.824219 L 71.445312 218.847656 L 66.46875 218.847656 Z M 66.46875 223.824219 "/>
<path style=" stroke:none;fill-rule:nonzero;fill:rgb(97.254902%,46.27451%,42.745098%);fill-opacity:1;" d="M 74.03125 116.230469 C 74.03125 119.546875 69.054688 119.546875 69.054688 116.230469 C 69.054688 112.914062 74.03125 112.914062 74.03125 116.230469 "/>
<path style=" stroke:none;fill-rule:nonzero;fill:rgb(0%,72.941176%,21.960784%);fill-opacity:1;" d="M 71.542969 84.789062 L 74.894531 90.59375 L 68.191406 90.59375 Z M 71.542969 84.789062 "/>
<path style=" stroke:none;fill-rule:nonzero;fill:rgb(38.039216%,61.176471%,100%);fill-opacity:1;" d="M 69.054688 223.824219 L 74.03125 223.824219 L 74.03125 218.847656 L 69.054688 218.847656 Z M 69.054688 223.824219 "/>
<path style=" stroke:none;fill-rule:nonzero;fill:rgb(97.254902%,46.27451%,42.745098%);fill-opacity:1;" d="M 76.613281 157.132812 C 76.613281 160.453125 71.636719 160.453125 71.636719 157.132812 C 71.636719 153.816406 76.613281 153.816406 76.613281 157.132812 "/>
<path style=" stroke:none;fill-rule:nonzero;fill:rgb(0%,72.941176%,21.960784%);fill-opacity:1;" d="M 74.125 128.199219 L 77.476562 134.003906 L 70.773438 134.003906 Z M 74.125 128.199219 "/>
<path style=" stroke:none;fill-rule:nonzero;fill:rgb(38.039216%,61.176471%,100%);fill-opacity:1;" d="M 71.636719 223.824219 L 76.613281 223.824219 L 76.613281 218.847656 L 71.636719 218.847656 Z M 71.636719 223.824219 "/>
<path style=" stroke:none;fill-rule:nonzero;fill:rgb(97.254902%,46.27451%,42.745098%);fill-opacity:1;" d="M 79.199219 169.667969 C 79.199219 172.988281 74.222656 172.988281 74.222656 169.667969 C 74.222656 166.351562 79.199219 166.351562 79.199219 169.667969 "/>
<path style=" stroke:none;fill-rule:nonzero;fill:rgb(0%,72.941176%,21.960784%);fill-opacity:1;" d="M 76.710938 147.625 L 80.0625 153.425781 L 73.359375 153.425781 Z M 76.710938 147.625 "/>
<path style=" stroke:none;fill-rule:nonzero;fill:rgb(38.039216%,61.176471%,100%);fill-opacity:1;" d="M 74.222656 223.824219 L 79.199219 223.824219 L 79.199219 218.847656 L 74.222656 218.847656 Z M 74.222656 223.824219 "/>
<path style=" stroke:none;fill-rule:nonzero;fill:rgb(97.254902%,46.27451%,42.745098%);fill-opacity:1;" d="M 94.703125 197.082031 C 94.703125 200.398438 89.726562 200.398438 89.726562 197.082031 C 89.726562 193.765625 94.703125 193.765625 94.703125 197.082031 "/>
<path style=" stroke:none;fill-rule:nonzero;fill:rgb(0%,72.941176%,21.960784%);fill-opacity:1;" d="M 92.214844 186.660156 L 95.566406 192.464844 L 88.863281 192.464844 Z M 92.214844 186.660156 "/>
<path style=" stroke:none;fill-rule:nonzero;fill:rgb(38.039216%,61.176471%,100%);fill-opacity:1;" d="M 89.726562 223.824219 L 94.703125 223.824219 L 94.703125 218.847656 L 89.726562 218.847656 Z M 89.726562 223.824219 "/>
<path style=" stroke:none;fill-rule:nonzero;fill:rgb(97.254902%,46.27451%,42.745098%);fill-opacity:1;" d="M 120.546875 209.222656 C 120.546875 212.542969 115.570312 212.542969 115.570312 209.222656 C 115.570312 205.90625 120.546875 205.90625 120.546875 209.222656 "/>
<path style=" stroke:none;fill-rule:nonzero;fill:rgb(0%,72.941176%,21.960784%);fill-opacity:1;" d="M 118.058594 201.472656 L 121.410156 207.277344 L 114.707031 207.277344 Z M 118.058594 201.472656 "/>
<path style=" stroke:none;fill-rule:nonzero;fill:rgb(38.039216%,61.176471%,100%);fill-opacity:1;" d="M 115.570312 223.824219 L 120.546875 223.824219 L 120.546875 218.847656 L 115.570312 218.847656 Z M 115.570312 223.824219 "/>
<path style=" stroke:none;fill-rule:nonzero;fill:rgb(97.254902%,46.27451%,42.745098%);fill-opacity:1;" d="M 146.390625 213.492188 C 146.390625 216.8125 141.414062 216.8125 141.414062 213.492188 C 141.414062 210.175781 146.390625 210.175781 146.390625 213.492188 "/>
<path style=" stroke:none;fill-rule:nonzero;fill:rgb(0%,72.941176%,21.960784%);fill-opacity:1;" d="M 143.902344 206.496094 L 147.253906 212.300781 L 140.550781 212.300781 Z M 143.902344 206.496094 "/>
<path style=" stroke:none;fill-rule:nonzero;fill:rgb(38.039216%,61.176471%,100%);fill-opacity:1;" d="M 141.414062 223.824219 L 146.390625 223.824219 L 146.390625 218.847656 L 141.414062 218.847656 Z M 141.414062 223.824219 "/>
<path style=" stroke:none;fill-rule:nonzero;fill:rgb(97.254902%,46.27451%,42.745098%);fill-opacity:1;" d="M 172.234375 214.9375 C 172.234375 218.257812 167.257812 218.257812 167.257812 214.9375 C 167.257812 211.621094 172.234375 211.621094 172.234375 214.9375 "/>
<path style=" stroke:none;fill-rule:nonzero;fill:rgb(0%,72.941176%,21.960784%);fill-opacity:1;" d="M 169.746094 208.742188 L 173.09375 214.546875 L 166.394531 214.546875 Z M 169.746094 208.742188 "/>
<path style=" stroke:none;fill-rule:nonzero;fill:rgb(38.039216%,61.176471%,100%);fill-opacity:1;" d="M 167.257812 223.824219 L 172.234375 223.824219 L 172.234375 218.847656 L 167.257812 218.847656 Z M 167.257812 223.824219 "/>
<path style=" stroke:none;fill-rule:nonzero;fill:rgb(97.254902%,46.27451%,42.745098%);fill-opacity:1;" d="M 275.601562 217.703125 C 275.601562 221.019531 270.625 221.019531 270.625 217.703125 C 270.625 214.386719 275.601562 214.386719 275.601562 217.703125 "/>
<path style=" stroke:none;fill-rule:nonzero;fill:rgb(0%,72.941176%,21.960784%);fill-opacity:1;" d="M 273.113281 212.734375 L 276.464844 218.539062 L 269.765625 218.539062 Z M 273.113281 212.734375 "/>
<path style=" stroke:none;fill-rule:nonzero;fill:rgb(38.039216%,61.176471%,100%);fill-opacity:1;" d="M 270.625 223.824219 L 275.601562 223.824219 L 275.601562 218.847656 L 270.625 218.847656 Z M 270.625 223.824219 "/>
<path style=" stroke:none;fill-rule:nonzero;fill:rgb(97.254902%,46.27451%,42.745098%);fill-opacity:1;" d="M 378.972656 218.898438 C 378.972656 222.214844 373.996094 222.214844 373.996094 218.898438 C 373.996094 215.582031 378.972656 215.582031 378.972656 218.898438 "/>
<path style=" stroke:none;fill-rule:nonzero;fill:rgb(0%,72.941176%,21.960784%);fill-opacity:1;" d="M 376.484375 214.558594 L 379.835938 220.363281 L 373.136719 220.363281 Z M 376.484375 214.558594 "/>
<path style=" stroke:none;fill-rule:nonzero;fill:rgb(38.039216%,61.176471%,100%);fill-opacity:1;" d="M 373.996094 223.824219 L 378.972656 223.824219 L 378.972656 218.847656 L 373.996094 218.847656 Z M 373.996094 223.824219 "/>
<path style=" stroke:none;fill-rule:nonzero;fill:rgb(97.254902%,46.27451%,42.745098%);fill-opacity:1;" d="M 482.34375 219.695312 C 482.34375 223.011719 477.367188 223.011719 477.367188 219.695312 C 477.367188 216.378906 482.34375 216.378906 482.34375 219.695312 "/>
<path style=" stroke:none;fill-rule:nonzero;fill:rgb(0%,72.941176%,21.960784%);fill-opacity:1;" d="M 479.855469 215.457031 L 483.207031 221.261719 L 476.503906 221.261719 Z M 479.855469 215.457031 "/>
<path style=" stroke:none;fill-rule:nonzero;fill:rgb(38.039216%,61.176471%,100%);fill-opacity:1;" d="M 477.367188 223.824219 L 482.34375 223.824219 L 482.34375 218.847656 L 477.367188 218.847656 Z M 477.367188 223.824219 "/>
<path style=" stroke:none;fill-rule:nonzero;fill:rgb(97.254902%,46.27451%,42.745098%);fill-opacity:1;" d="M 585.714844 220.023438 C 585.714844 223.339844 580.738281 223.339844 580.738281 220.023438 C 580.738281 216.703125 585.714844 216.703125 585.714844 220.023438 "/>
<path style=" stroke:none;fill-rule:nonzero;fill:rgb(0%,72.941176%,21.960784%);fill-opacity:1;" d="M 583.226562 215.757812 L 586.578125 221.5625 L 579.875 221.5625 Z M 583.226562 215.757812 "/>
<path style=" stroke:none;fill-rule:nonzero;fill:rgb(38.039216%,61.176471%,100%);fill-opacity:1;" d="M 580.738281 223.824219 L 585.714844 223.824219 L 585.714844 218.847656 L 580.738281 218.847656 Z M 580.738281 223.824219 "/>
<path style="fill:none;stroke-width:1.600468;stroke-linecap:butt;stroke-linejoin:round;stroke:rgb(97.254902%,46.27451%,42.745098%);stroke-opacity:1;stroke-miterlimit:1;" d="M 68.957031 44.496094 L 71.542969 116.230469 L 74.125 157.132812 L 76.710938 169.667969 L 92.214844 197.082031 L 118.058594 209.222656 L 143.902344 213.492188 L 169.746094 214.9375 L 273.113281 217.703125 L 376.484375 218.898438 L 479.855469 219.695312 L 583.226562 220.023438 "/>
<path style="fill:none;stroke-width:1.600468;stroke-linecap:butt;stroke-linejoin:round;stroke:rgb(0%,72.941176%,21.960784%);stroke-opacity:1;stroke-dasharray:3.200935,3.200935;stroke-miterlimit:1;" d="M 71.542969 88.65625 L 74.125 132.066406 L 76.710938 151.492188 L 92.214844 190.53125 L 118.058594 205.339844 L 143.902344 210.367188 L 169.746094 212.613281 L 273.113281 216.601562 L 376.484375 218.425781 L 479.855469 219.328125 L 583.226562 219.628906 "/>
<path style="fill:none;stroke-width:1.600468;stroke-linecap:butt;stroke-linejoin:round;stroke:rgb(38.039216%,61.176471%,100%);stroke-opacity:1;stroke-dasharray:6.40187,3.200935;stroke-miterlimit:1;" d="M 66.375 221.335938 L 583.226562 221.335938 "/>
<g clip-path="url(#clip17)" clip-rule="nonzero">
<path style="fill:none;stroke-width:1.066978;stroke-linecap:round;stroke-linejoin:round;stroke:rgb(49.803922%,49.803922%,49.803922%);stroke-opacity:1;stroke-miterlimit:10;" d="M 40.53125 252.46875 L 609.070312 252.46875 L 609.070312 24.148438 L 40.53125 24.148438 Z M 40.53125 252.46875 "/>
</g>
<g style="fill:rgb(0%,0%,0%);fill-opacity:1;">
  <use xlink:href="#glyph0-1" x="28.152344" y="225.246094"/>
</g>
<g style="fill:rgb(0%,0%,0%);fill-opacity:1;">
  <use xlink:href="#glyph0-2" x="28.152344" y="204.488281"/>
</g>
<g style="fill:rgb(0%,0%,0%);fill-opacity:1;">
  <use xlink:href="#glyph0-3" x="28.152344" y="183.734375"/>
</g>
<g style="fill:rgb(0%,0%,0%);fill-opacity:1;">
  <use xlink:href="#glyph0-4" x="28.152344" y="162.976562"/>
</g>
<g style="fill:rgb(0%,0%,0%);fill-opacity:1;">
  <use xlink:href="#glyph0-5" x="28.152344" y="142.21875"/>
</g>
<g style="fill:rgb(0%,0%,0%);fill-opacity:1;">
  <use xlink:href="#glyph0-1" x="22.152344" y="38.4375"/>
  <use xlink:href="#glyph0-6" x="28.514648" y="38.4375"/>
</g>
<path style="fill:none;stroke-width:1.066978;stroke-linecap:butt;stroke-linejoin:round;stroke:rgb(0%,0%,0%);stroke-opacity:1;stroke-miterlimit:10;" d="M 37.542969 221.335938 L 40.53125 221.335938 "/>
<path style="fill:none;stroke-width:1.066978;stroke-linecap:butt;stroke-linejoin:round;stroke:rgb(0%,0%,0%);stroke-opacity:1;stroke-miterlimit:10;" d="M 37.542969 200.578125 L 40.53125 200.578125 "/>
<path style="fill:none;stroke-width:1.066978;stroke-linecap:butt;stroke-linejoin:round;stroke:rgb(0%,0%,0%);stroke-opacity:1;stroke-miterlimit:10;" d="M 37.542969 179.824219 L 40.53125 179.824219 "/>
<path style="fill:none;stroke-width:1.066978;stroke-linecap:butt;stroke-linejoin:round;stroke:rgb(0%,0%,0%);stroke-opacity:1;stroke-miterlimit:10;" d="M 37.542969 159.066406 L 40.53125 159.066406 "/>
<path style="fill:none;stroke-width:1.066978;stroke-linecap:butt;stroke-linejoin:round;stroke:rgb(0%,0%,0%);stroke-opacity:1;stroke-miterlimit:10;" d="M 37.542969 138.308594 L 40.53125 138.308594 "/>
<path style="fill:none;stroke-width:1.066978;stroke-linecap:butt;stroke-linejoin:round;stroke:rgb(0%,0%,0%);stroke-opacity:1;stroke-miterlimit:10;" d="M 37.542969 34.527344 L 40.53125 34.527344 "/>
<path style="fill:none;stroke-width:1.066978;stroke-linecap:butt;stroke-linejoin:round;stroke:rgb(0%,0%,0%);stroke-opacity:1;stroke-miterlimit:10;" d="M 66.375 255.457031 L 66.375 252.46875 "/>
<path style="fill:none;stroke-width:1.066978;stroke-linecap:butt;stroke-linejoin:round;stroke:rgb(0%,0%,0%);stroke-opacity:1;stroke-miterlimit:10;" d="M 92.214844 255.457031 L 92.214844 252.46875 "/>
<path style="fill:none;stroke-width:1.066978;stroke-linecap:butt;stroke-linejoin:round;stroke:rgb(0%,0%,0%);stroke-opacity:1;stroke-miterlimit:10;" d="M 118.058594 255.457031 L 118.058594 252.46875 "/>
<path style="fill:none;stroke-width:1.066978;stroke-linecap:butt;stroke-linejoin:round;stroke:rgb(0%,0%,0%);stroke-opacity:1;stroke-miterlimit:10;" d="M 143.902344 255.457031 L 143.902344 252.46875 "/>
<path style="fill:none;stroke-width:1.066978;stroke-linecap:butt;stroke-linejoin:round;stroke:rgb(0%,0%,0%);stroke-opacity:1;stroke-miterlimit:10;" d="M 169.746094 255.457031 L 169.746094 252.46875 "/>
<path style="fill:none;stroke-width:1.066978;stroke-linecap:butt;stroke-linejoin:round;stroke:rgb(0%,0%,0%);stroke-opacity:1;stroke-miterlimit:10;" d="M 273.113281 255.457031 L 273.113281 252.46875 "/>
<path style="fill:none;stroke-width:1.066978;stroke-linecap:butt;stroke-linejoin:round;stroke:rgb(0%,0%,0%);stroke-opacity:1;stroke-miterlimit:10;" d="M 376.484375 255.457031 L 376.484375 252.46875 "/>
<path style="fill:none;stroke-width:1.066978;stroke-linecap:butt;stroke-linejoin:round;stroke:rgb(0%,0%,0%);stroke-opacity:1;stroke-miterlimit:10;" d="M 479.855469 255.457031 L 479.855469 252.46875 "/>
<path style="fill:none;stroke-width:1.066978;stroke-linecap:butt;stroke-linejoin:round;stroke:rgb(0%,0%,0%);stroke-opacity:1;stroke-miterlimit:10;" d="M 583.226562 255.457031 L 583.226562 252.46875 "/>
<g style="fill:rgb(0%,0%,0%);fill-opacity:1;">
  <use xlink:href="#glyph0-6" x="54.875" y="265.757812"/>
  <use xlink:href="#glyph0-7" x="61.237305" y="265.757812"/>
  <use xlink:href="#glyph0-6" x="64.416016" y="265.757812"/>
  <use xlink:href="#glyph0-6" x="70.77832" y="265.757812"/>
</g>
<g style="fill:rgb(0%,0%,0%);fill-opacity:1;">
  <use xlink:href="#glyph0-6" x="80.714844" y="265.757812"/>
  <use xlink:href="#glyph0-7" x="87.077148" y="265.757812"/>
  <use xlink:href="#glyph0-2" x="90.255859" y="265.757812"/>
  <use xlink:href="#glyph0-5" x="96.618164" y="265.757812"/>
</g>
<g style="fill:rgb(0%,0%,0%);fill-opacity:1;">
  <use xlink:href="#glyph0-6" x="106.558594" y="265.757812"/>
  <use xlink:href="#glyph0-7" x="112.920898" y="265.757812"/>
  <use xlink:href="#glyph0-5" x="116.099609" y="265.757812"/>
  <use xlink:href="#glyph0-6" x="122.461914" y="265.757812"/>
</g>
<g style="fill:rgb(0%,0%,0%);fill-opacity:1;">
  <use xlink:href="#glyph0-6" x="132.402344" y="265.757812"/>
  <use xlink:href="#glyph0-7" x="138.764648" y="265.757812"/>
  <use xlink:href="#glyph0-8" x="141.943359" y="265.757812"/>
  <use xlink:href="#glyph0-5" x="148.305664" y="265.757812"/>
</g>
<g style="fill:rgb(0%,0%,0%);fill-opacity:1;">
  <use xlink:href="#glyph0-1" x="158.246094" y="265.757812"/>
  <use xlink:href="#glyph0-7" x="164.608398" y="265.757812"/>
  <use xlink:href="#glyph0-6" x="167.787109" y="265.757812"/>
  <use xlink:href="#glyph0-6" x="174.149414" y="265.757812"/>
</g>
<g style="fill:rgb(0%,0%,0%);fill-opacity:1;">
  <use xlink:href="#glyph0-2" x="261.613281" y="265.757812"/>
  <use xlink:href="#glyph0-7" x="267.975586" y="265.757812"/>
  <use xlink:href="#glyph0-6" x="271.154297" y="265.757812"/>
  <use xlink:href="#glyph0-6" x="277.516602" y="265.757812"/>
</g>
<g style="fill:rgb(0%,0%,0%);fill-opacity:1;">
  <use xlink:href="#glyph0-3" x="364.984375" y="265.757812"/>
  <use xlink:href="#glyph0-7" x="371.34668" y="265.757812"/>
  <use xlink:href="#glyph0-6" x="374.525391" y="265.757812"/>
  <use xlink:href="#glyph0-6" x="380.887695" y="265.757812"/>
</g>
<g style="fill:rgb(0%,0%,0%);fill-opacity:1;">
  <use xlink:href="#glyph0-4" x="468.355469" y="265.757812"/>
  <use xlink:href="#glyph0-7" x="474.717773" y="265.757812"/>
  <use xlink:href="#glyph0-6" x="477.896484" y="265.757812"/>
  <use xlink:href="#glyph0-6" x="484.258789" y="265.757812"/>
</g>
<g style="fill:rgb(0%,0%,0%);fill-opacity:1;">
  <use xlink:href="#glyph0-5" x="571.726562" y="265.757812"/>
  <use xlink:href="#glyph0-7" x="578.088867" y="265.757812"/>
  <use xlink:href="#glyph0-6" x="581.267578" y="265.757812"/>
  <use xlink:href="#glyph0-6" x="587.629883" y="265.757812"/>
</g>
<g style="fill:rgb(0%,0%,0%);fill-opacity:1;">
  <use xlink:href="#glyph1-1" x="203.300781" y="278.771484"/>
  <use xlink:href="#glyph1-2" x="210.261719" y="278.771484"/>
  <use xlink:href="#glyph1-3" x="213.595703" y="278.771484"/>
  <use xlink:href="#glyph1-4" x="225.285156" y="278.771484"/>
  <use xlink:href="#glyph1-5" x="232.667969" y="278.771484"/>
  <use xlink:href="#glyph1-6" x="236.482422" y="278.771484"/>
  <use xlink:href="#glyph1-4" x="244.099609" y="278.771484"/>
  <use xlink:href="#glyph1-7" x="251.482422" y="278.771484"/>
  <use xlink:href="#glyph1-8" x="256.1875" y="278.771484"/>
  <use xlink:href="#glyph1-4" x="266.001953" y="278.771484"/>
  <use xlink:href="#glyph1-4" x="273.384766" y="278.771484"/>
  <use xlink:href="#glyph1-9" x="280.767578" y="278.771484"/>
  <use xlink:href="#glyph1-5" x="288.373047" y="278.771484"/>
  <use xlink:href="#glyph1-7" x="292.1875" y="278.771484"/>
  <use xlink:href="#glyph1-8" x="296.892578" y="278.771484"/>
  <use xlink:href="#glyph1-10" x="306.707031" y="278.771484"/>
  <use xlink:href="#glyph1-5" x="314.048828" y="278.771484"/>
  <use xlink:href="#glyph1-4" x="317.863281" y="278.771484"/>
  <use xlink:href="#glyph1-11" x="325.246094" y="278.771484"/>
  <use xlink:href="#glyph1-4" x="332.347656" y="278.771484"/>
  <use xlink:href="#glyph1-9" x="339.730469" y="278.771484"/>
  <use xlink:href="#glyph1-7" x="347.335938" y="278.771484"/>
  <use xlink:href="#glyph1-12" x="352.041016" y="278.771484"/>
  <use xlink:href="#glyph1-5" x="358.292969" y="278.771484"/>
  <use xlink:href="#glyph1-13" x="362.107422" y="278.771484"/>
  <use xlink:href="#glyph1-3" x="366.789062" y="278.771484"/>
  <use xlink:href="#glyph1-2" x="378.478516" y="278.771484"/>
  <use xlink:href="#glyph1-14" x="381.8125" y="278.771484"/>
  <use xlink:href="#glyph1-14" x="385.146484" y="278.771484"/>
  <use xlink:href="#glyph1-2" x="388.480469" y="278.771484"/>
  <use xlink:href="#glyph1-12" x="391.814453" y="278.771484"/>
  <use xlink:href="#glyph1-4" x="398.066406" y="278.771484"/>
  <use xlink:href="#glyph1-15" x="405.449219" y="278.771484"/>
  <use xlink:href="#glyph1-10" x="412.046875" y="278.771484"/>
  <use xlink:href="#glyph1-9" x="419.388672" y="278.771484"/>
  <use xlink:href="#glyph1-16" x="426.994141" y="278.771484"/>
  <use xlink:href="#glyph1-12" x="434.611328" y="278.771484"/>
  <use xlink:href="#glyph1-17" x="440.863281" y="278.771484"/>
</g>
<g style="fill:rgb(0%,0%,0%);fill-opacity:1;">
  <use xlink:href="#glyph2-1" x="16.505859" y="188.308594"/>
  <use xlink:href="#glyph2-2" x="16.505859" y="180.691406"/>
  <use xlink:href="#glyph2-3" x="16.505859" y="177.357422"/>
  <use xlink:href="#glyph2-4" x="16.505859" y="170.015625"/>
  <use xlink:href="#glyph2-5" x="16.505859" y="160.201172"/>
  <use xlink:href="#glyph2-3" x="16.505859" y="152.583984"/>
  <use xlink:href="#glyph2-4" x="16.505859" y="145.242188"/>
  <use xlink:href="#glyph2-6" x="16.505859" y="135.427734"/>
  <use xlink:href="#glyph2-7" x="16.505859" y="127.822266"/>
  <use xlink:href="#glyph2-8" x="16.505859" y="124.007812"/>
  <use xlink:href="#glyph2-9" x="16.505859" y="119.783203"/>
  <use xlink:href="#glyph2-10" x="16.505859" y="112.429688"/>
  <use xlink:href="#glyph2-11" x="16.505859" y="105.832031"/>
  <use xlink:href="#glyph2-3" x="16.505859" y="101.126953"/>
  <use xlink:href="#glyph2-12" x="16.505859" y="93.785156"/>
</g>
<path style=" stroke:none;fill-rule:nonzero;fill:rgb(100%,100%,100%);fill-opacity:1;" d="M 617.574219 175.140625 L 705.519531 175.140625 L 705.519531 101.476562 L 617.574219 101.476562 Z M 617.574219 175.140625 "/>
<g style="fill:rgb(0%,0%,0%);fill-opacity:1;">
  <use xlink:href="#glyph1-15" x="621.828125" y="113.869141"/>
  <use xlink:href="#glyph1-10" x="628.425781" y="113.869141"/>
  <use xlink:href="#glyph1-14" x="635.767578" y="113.869141"/>
</g>
<path style="fill-rule:nonzero;fill:rgb(100%,100%,100%);fill-opacity:1;stroke-width:1.066978;stroke-linecap:round;stroke-linejoin:round;stroke:rgb(80%,80%,80%);stroke-opacity:1;stroke-miterlimit:10;" d="M 621.828125 136.332031 L 639.109375 136.332031 L 639.109375 119.050781 L 621.828125 119.050781 Z M 621.828125 136.332031 "/>
<path style=" stroke:none;fill-rule:nonzero;fill:rgb(97.254902%,46.27451%,42.745098%);fill-opacity:1;" d="M 632.953125 127.691406 C 632.953125 131.007812 627.976562 131.007812 627.976562 127.691406 C 627.976562 124.371094 632.953125 124.371094 632.953125 127.691406 "/>
<path style="fill:none;stroke-width:1.600468;stroke-linecap:butt;stroke-linejoin:round;stroke:rgb(97.254902%,46.27451%,42.745098%);stroke-opacity:1;stroke-miterlimit:10;" d="M 623.554688 127.691406 L 637.378906 127.691406 "/>
<path style="fill-rule:nonzero;fill:rgb(100%,100%,100%);fill-opacity:1;stroke-width:1.066978;stroke-linecap:round;stroke-linejoin:round;stroke:rgb(80%,80%,80%);stroke-opacity:1;stroke-miterlimit:10;" d="M 621.828125 153.609375 L 639.109375 153.609375 L 639.109375 136.328125 L 621.828125 136.328125 Z M 621.828125 153.609375 "/>
<path style=" stroke:none;fill-rule:nonzero;fill:rgb(0%,72.941176%,21.960784%);fill-opacity:1;" d="M 630.464844 141.101562 L 633.816406 146.90625 L 627.117188 146.90625 Z M 630.464844 141.101562 "/>
<path style="fill:none;stroke-width:1.600468;stroke-linecap:butt;stroke-linejoin:round;stroke:rgb(0%,72.941176%,21.960784%);stroke-opacity:1;stroke-dasharray:3.200935,3.200935;stroke-miterlimit:10;" d="M 623.554688 144.96875 L 637.378906 144.96875 "/>
<path style="fill-rule:nonzero;fill:rgb(100%,100%,100%);fill-opacity:1;stroke-width:1.066978;stroke-linecap:round;stroke-linejoin:round;stroke:rgb(80%,80%,80%);stroke-opacity:1;stroke-miterlimit:10;" d="M 621.828125 170.890625 L 639.109375 170.890625 L 639.109375 153.609375 L 621.828125 153.609375 Z M 621.828125 170.890625 "/>
<path style=" stroke:none;fill-rule:nonzero;fill:rgb(38.039216%,61.176471%,100%);fill-opacity:1;" d="M 627.976562 164.738281 L 632.953125 164.738281 L 632.953125 159.761719 L 627.976562 159.761719 Z M 627.976562 164.738281 "/>
<path style="fill:none;stroke-width:1.600468;stroke-linecap:butt;stroke-linejoin:round;stroke:rgb(38.039216%,61.176471%,100%);stroke-opacity:1;stroke-dasharray:6.40187,3.200935;stroke-miterlimit:10;" d="M 623.554688 162.25 L 637.378906 162.25 "/>
<g style="fill:rgb(0%,0%,0%);fill-opacity:1;">
  <use xlink:href="#glyph0-9" x="641.265625" y="131.601562"/>
  <use xlink:href="#glyph0-10" x="644.043945" y="131.601562"/>
  <use xlink:href="#glyph0-11" x="647.652344" y="131.601562"/>
  <use xlink:href="#glyph0-12" x="654.053711" y="131.601562"/>
  <use xlink:href="#glyph0-13" x="660.894531" y="131.601562"/>
  <use xlink:href="#glyph0-14" x="665.303711" y="131.601562"/>
  <use xlink:href="#glyph0-14" x="671.421875" y="131.601562"/>
  <use xlink:href="#glyph0-15" x="677.540039" y="131.601562"/>
</g>
<g style="fill:rgb(0%,0%,0%);fill-opacity:1;">
  <use xlink:href="#glyph0-9" x="641.265625" y="148.878906"/>
  <use xlink:href="#glyph0-10" x="644.043945" y="148.878906"/>
  <use xlink:href="#glyph0-11" x="647.652344" y="148.878906"/>
  <use xlink:href="#glyph0-12" x="654.053711" y="148.878906"/>
  <use xlink:href="#glyph0-13" x="660.894531" y="148.878906"/>
  <use xlink:href="#glyph0-14" x="665.303711" y="148.878906"/>
  <use xlink:href="#glyph0-14" x="671.421875" y="148.878906"/>
  <use xlink:href="#glyph0-15" x="677.540039" y="148.878906"/>
  <use xlink:href="#glyph0-10" x="680.318359" y="148.878906"/>
  <use xlink:href="#glyph0-16" x="683.926758" y="148.878906"/>
  <use xlink:href="#glyph0-17" x="690.054688" y="148.878906"/>
  <use xlink:href="#glyph0-18" x="693.990234" y="148.878906"/>
</g>
<g style="fill:rgb(0%,0%,0%);fill-opacity:1;">
  <use xlink:href="#glyph0-17" x="641.265625" y="166.160156"/>
  <use xlink:href="#glyph0-16" x="645.376953" y="166.160156"/>
  <use xlink:href="#glyph0-19" x="651.504883" y="166.160156"/>
</g>
<g style="fill:rgb(0%,0%,0%);fill-opacity:1;">
  <use xlink:href="#glyph3-1" x="168.800781" y="16.342773"/>
  <use xlink:href="#glyph3-2" x="179.820312" y="16.342773"/>
  <use xlink:href="#glyph3-3" x="188.105469" y="16.342773"/>
  <use xlink:href="#glyph3-4" x="196.71875" y="16.342773"/>
  <use xlink:href="#glyph3-5" x="202.228516" y="16.342773"/>
  <use xlink:href="#glyph3-3" x="211.101562" y="16.342773"/>
  <use xlink:href="#glyph3-6" x="219.714844" y="16.342773"/>
  <use xlink:href="#glyph3-7" x="228.293945" y="16.342773"/>
  <use xlink:href="#glyph3-8" x="237.180664" y="16.342773"/>
  <use xlink:href="#glyph3-9" x="241.630859" y="16.342773"/>
  <use xlink:href="#glyph3-10" x="250.196289" y="16.342773"/>
  <use xlink:href="#glyph3-8" x="255.125" y="16.342773"/>
  <use xlink:href="#glyph3-11" x="259.575195" y="16.342773"/>
  <use xlink:href="#glyph3-4" x="268.461914" y="16.342773"/>
  <use xlink:href="#glyph3-9" x="273.910156" y="16.342773"/>
  <use xlink:href="#glyph3-11" x="282.475586" y="16.342773"/>
  <use xlink:href="#glyph3-3" x="291.362305" y="16.342773"/>
  <use xlink:href="#glyph3-4" x="299.975586" y="16.342773"/>
  <use xlink:href="#glyph3-12" x="305.731445" y="16.342773"/>
  <use xlink:href="#glyph3-13" x="311.220703" y="16.342773"/>
  <use xlink:href="#glyph3-14" x="319.259766" y="16.342773"/>
  <use xlink:href="#glyph3-15" x="324.311523" y="16.342773"/>
  <use xlink:href="#glyph3-5" x="332.008789" y="16.342773"/>
  <use xlink:href="#glyph3-3" x="340.881836" y="16.342773"/>
  <use xlink:href="#glyph3-15" x="349.495117" y="16.342773"/>
  <use xlink:href="#glyph3-16" x="357.192383" y="16.342773"/>
  <use xlink:href="#glyph3-17" x="365.299805" y="16.342773"/>
  <use xlink:href="#glyph3-18" x="369.189453" y="16.342773"/>
  <use xlink:href="#glyph3-19" x="378.0625" y="16.342773"/>
  <use xlink:href="#glyph3-8" x="386.949219" y="16.342773"/>
  <use xlink:href="#glyph3-20" x="391.399414" y="16.342773"/>
  <use xlink:href="#glyph3-17" x="402.849609" y="16.342773"/>
  <use xlink:href="#glyph3-12" x="406.739258" y="16.342773"/>
  <use xlink:href="#glyph3-5" x="412.228516" y="16.342773"/>
  <use xlink:href="#glyph3-8" x="421.101562" y="16.342773"/>
  <use xlink:href="#glyph3-17" x="425.551758" y="16.342773"/>
  <use xlink:href="#glyph3-14" x="429.441406" y="16.342773"/>
  <use xlink:href="#glyph3-21" x="434.493164" y="16.342773"/>
  <use xlink:href="#glyph3-22" x="443.455078" y="16.342773"/>
  <use xlink:href="#glyph3-23" x="453.032227" y="16.342773"/>
  <use xlink:href="#glyph3-9" x="459.205078" y="16.342773"/>
  <use xlink:href="#glyph3-9" x="467.770508" y="16.342773"/>
  <use xlink:href="#glyph3-24" x="476.335938" y="16.342773"/>
</g>
</g>
</svg>
