   sleep, time
   10000, 1.023872992
     100, 0.029369578
       0, 0.012992806
       0, 0.013163992
    5000, 0.529182591
    2000, 0.226160212
    4000, 0.414243263
       0, 0.013942354
       0, 0.012093105
      25, 0.015301108
       0, 0.012314037
     750, 0.095470381
    1000, 0.120497952
       5, 0.015346339
       0, 0.012246706
     500, 0.068746604
    3000, 0.328318810
     250, 0.045905885
      50, 0.018027645
      75, 0.025773892
       0, 0.015136518
      10, 0.013384447
     750, 0.098511529
     100, 0.028652808
       0, 0.013424977
    1000, 0.129057357
       0, 0.015807149
       5, 0.014128227
     250, 0.041084208
    3000, 0.328620263
   10000, 1.013969436
      50, 0.020302872
      75, 0.020673398
       0, 0.012364054
      25, 0.015898884
    5000, 0.518856012
    2000, 0.233387751
       0, 0.018052584
       0, 0.013154972
       0, 0.011733607
       0, 0.017655581
     500, 0.066396349
      10, 0.013737041
    4000, 0.427618675
       5, 0.016197790
      75, 0.024850422
      25, 0.015533739
     100, 0.026945736
     250, 0.039871283
       0, 0.013108586
       0, 0.015039624
       0, 0.012594160
    2000, 0.223994178
       0, 0.014394969
    4000, 0.428795002
      10, 0.013614840
       0, 0.013439733
    1000, 0.132412503
      50, 0.022908251
    5000, 0.528948069
     500, 0.068117380
   10000, 1.015886986
     750, 0.099226456
    3000, 0.328288539
       0, 0.011874769
       0, 0.012145612
       0, 0.014068653
     750, 0.095779952
      25, 0.020552823
       0, 0.012101521
       0, 0.011753021
    4000, 0.415979290
      50, 0.020417864
       0, 0.015434304
       0, 0.015147669
       0, 0.012582453
    2000, 0.227984927
    5000, 0.522841234
    1000, 0.128395233
     500, 0.066844849
   10000, 1.026795025
       5, 0.013019997
     100, 0.025605982
      10, 0.013389229
    3000, 0.317985696
      75, 0.020262754
     250, 0.045275269
       0, 0.012194753
       0, 0.012017938
      25, 0.019542913
       0, 0.013148553
       0, 0.014446239
      75, 0.025793256
      10, 0.013935788
     750, 0.095016330
    3000, 0.320109430
       5, 0.012993841
    5000, 0.531823450
    1000, 0.123676516
   10000, 1.028293798
    2000, 0.218078205
     250, 0.043762468
       0, 0.013095004
      50, 0.022696843
       0, 0.012454908
     100, 0.028958123
       0, 0.016194750
       0, 0.014630445
     500, 0.071235191
    4000, 0.431094397
      25, 0.022377078
       5, 0.015110380
      75, 0.020400831
       0, 0.018118041
       0, 0.015585433
      50, 0.020254596
       0, 0.012137760
     250, 0.044501004
       0, 0.011914689
     100, 0.028027982
    3000, 0.317970855
   10000, 1.028989119
     500, 0.072610735
    2000, 0.233819745
    4000, 0.423911834
       0, 0.015952830
    5000, 0.526195184
       0, 0.014051436
       0, 0.012201566
      10, 0.013749761
    1000, 0.127592557
     750, 0.099588788
       0, 0.015712391
       0, 0.014985753
       0, 0.013063645
       0, 0.011816532
   10000, 1.015748480
     750, 0.093857877
       0, 0.014728133
       0, 0.015100503
    3000, 0.315734179
    5000, 0.516690510
     250, 0.043327693
    2000, 0.226262008
     500, 0.070102421
      50, 0.018170368
     100, 0.028619925
      75, 0.020102590
      10, 0.014723226
    4000, 0.417198691
      25, 0.018319991
    1000, 0.120785024
       5, 0.012774192
       0, 0.015881429
    5000, 0.517131837
      10, 0.018593965
       0, 0.013142136
    3000, 0.330321180
       0, 0.012685909
    1000, 0.130665404
     500, 0.070111251
       0, 0.011769752
      50, 0.019392954
    2000, 0.229504489
      25, 0.019674943
    4000, 0.422155656
       0, 0.015052868
   10000, 1.027533938
       5, 0.014461457
       0, 0.014003864
      75, 0.023077053
     100, 0.026535905
       0, 0.014645346
     750, 0.093998663
       0, 0.012698877
     250, 0.044987160
      75, 0.025265340
     100, 0.028477153
       0, 0.015397510
      25, 0.018766348
    1000, 0.118899837
   10000, 1.014553247
    2000, 0.223291912
       0, 0.013877284
       0, 0.012928414
       0, 0.015815836
       0, 0.011912568
     500, 0.068971316
     750, 0.089284281
       0, 0.012128052
       0, 0.015375806
     250, 0.043804460
    5000, 0.515302173
       5, 0.016022784
    3000, 0.327550100
      10, 0.014874686
    4000, 0.428587309
      50, 0.018501213
       5, 0.013596846
    1000, 0.117543268
      75, 0.021252692
       0, 0.013077705
       0, 0.015028298
    4000, 0.425744194
       0, 0.015769981
     100, 0.028948091
       0, 0.013041820
     500, 0.066701090
     250, 0.046049227
       0, 0.013685391
     750, 0.099389981
    2000, 0.224771619
      25, 0.019622422
    5000, 0.531172650
   10000, 1.027262238
       0, 0.014740729
      10, 0.013037352
    3000, 0.333186569
      50, 0.020492237
       0, 0.018597539
      10, 0.017647992
   10000, 1.025226046
       0, 0.012505351
    1000, 0.121043034
    4000, 0.432194256
       0, 0.012980638
      75, 0.020505459
       0, 0.015506900
       0, 0.011819164
     750, 0.094990722
     500, 0.068274274
       0, 0.012172795
      25, 0.017753171
       0, 0.015569121
       0, 0.012115008
    2000, 0.222804890
    5000, 0.527730209
    3000, 0.327804766
     100, 0.025430484
       5, 0.012769282
     250, 0.045729531
      50, 0.020697082
     750, 0.093110182
    3000, 0.317970212
      50, 0.021363810
     100, 0.026340351
    5000, 0.526765480
   10000, 1.014219810
       0, 0.015219424
      75, 0.021971961
       0, 0.012972473
      25, 0.015940107
       0, 0.011916026
       0, 0.013976429
    4000, 0.422726874
      10, 0.013614601
       0, 0.013813564
     500, 0.069682384
       5, 0.015057103
    2000, 0.221267289
       0, 0.013207953
    1000, 0.125678056
       0, 0.011922817
     250, 0.044814241
    4000, 0.430202576
       0, 0.014152161
    2000, 0.229059576
     100, 0.030116876
       0, 0.011871810
      25, 0.018823956
      75, 0.023771757
     250, 0.043076761
       5, 0.013371061
    5000, 0.527563741
   10000, 1.027076351
      10, 0.013655241
       0, 0.015107126
     750, 0.099598098
     500, 0.071935442
       0, 0.012441085
    1000, 0.116217779
       0, 0.011986432
       0, 0.015443735
    3000, 0.320906547
      50, 0.020347315
       0, 0.011834180
       0, 0.012907042
     750, 0.099582245
     250, 0.042759269
       0, 0.012207333
      75, 0.037548284
      25, 0.017275253
      50, 0.022239799
      10, 0.017138827
    3000, 0.327465580
     100, 0.025097585
       0, 0.014152390
       5, 0.014310779
   10000, 1.025520850
       0, 0.011706391
       0, 0.012567461
    4000, 0.414070995
       0, 0.014408007
       0, 0.011963534
    1000, 0.119635609
    2000, 0.218338378
    5000, 0.526563130
     500, 0.070498348
     500, 0.066793944
     750, 0.100827702
      25, 0.018374188
      75, 0.025419558
       0, 0.012102658
       0, 0.012008178
       0, 0.013423133
       0, 0.013770337
       0, 0.013980714
       0, 0.021276992
      50, 0.022020719
    1000, 0.126127479
    2000, 0.233789454
    4000, 0.431590433
       5, 0.012869178
   10000, 1.021331748
       0, 0.013654637
     250, 0.043555966
    3000, 0.327862630
    5000, 0.528852505
     100, 0.028057891
      10, 0.014866943
       0, 0.013020533
       0, 0.012912903
       0, 0.014368853
     250, 0.043876233
       0, 0.014621264
    4000, 0.430487105
       0, 0.013425094
   10000, 1.014616132
     100, 0.027675234
       0, 0.013335138
      50, 0.023375561
    3000, 0.320585308
       0, 0.015249307
       5, 0.013568327
      25, 0.015122870
     500, 0.067282123
      10, 0.013520602
    1000, 0.123690911
      75, 0.025070905
    2000, 0.228356955
     750, 0.089697173
    5000, 0.530814104
     100, 0.022591095
       0, 0.012569639
       0, 0.014014017
      50, 0.018158676
   10000, 1.023730782
      25, 0.016845113
    3000, 0.326824348
      10, 0.015693434
     750, 0.094995171
    4000, 0.430362979
    2000, 0.223501844
     250, 0.040440470
       0, 0.013207175
    1000, 0.129477790
       0, 0.013480712
    5000, 0.532958943
       0, 0.012128349
       0, 0.016426016
       5, 0.013363283
     500, 0.068615273
       0, 0.012462892
      75, 0.024922038
    5000, 0.522636953
    2000, 0.224605045
       0, 0.015835048
      10, 0.014095354
     250, 0.044939280
       0, 0.014821502
    1000, 0.122458630
     500, 0.071125282
    3000, 0.333962728
     100, 0.025184847
       0, 0.012720742
       0, 0.011788319
      50, 0.020911357
       0, 0.014428103
      25, 0.016531833
      75, 0.024560972
       0, 0.012234698
       5, 0.014501942
       0, 0.013149115
   10000, 1.022773511
     750, 0.102223886
    4000, 0.430367625
    2000, 0.226280243
      25, 0.016548384
    4000, 0.425639437
      50, 0.017206715
     750, 0.098684841
   10000, 1.021913758
       0, 0.012365673
       0, 0.014753835
     500, 0.075898646
    3000, 0.332056996
       0, 0.015059025
    5000, 0.525267666
    1000, 0.122473919
     250, 0.043916320
     100, 0.028022322
       0, 0.015492942
       0, 0.011663864
      10, 0.013324651
      75, 0.025919273
       0, 0.016007092
       5, 0.014209075
       0, 0.014254298
     100, 0.031036138
       0, 0.011853371
     750, 0.099564361
      10, 0.013577717
      25, 0.019821074
    4000, 0.414823600
       0, 0.011923417
      75, 0.025268439
     250, 0.043070015
       5, 0.012532771
       0, 0.011950379
    1000, 0.118850542
       0, 0.013104525
      50, 0.022787647
       0, 0.015953509
   10000, 1.024270613
    3000, 0.318408149
    5000, 0.527695610
       0, 0.013210727
     500, 0.063135445
       0, 0.015172601
    2000, 0.221378725
      75, 0.023773973
    5000, 0.529521345
      10, 0.016307011
     750, 0.098870747
       0, 0.014843626
      50, 0.018123922
   10000, 1.026992681
       0, 0.012373728
       0, 0.014378518
       0, 0.012039603
       5, 0.013575001
     100, 0.028746375
    1000, 0.119562701
      25, 0.017534847
    3000, 0.321905249
     250, 0.050502348
    4000, 0.429117395
    2000, 0.231482787
     500, 0.070262750
       0, 0.012274121
       0, 0.012248069
       0, 0.013914666
    5000, 0.530113878
    1000, 0.128806863
      10, 0.013972142
      25, 0.015694456
       0, 0.013360627
   10000, 1.028999373
      75, 0.020793352
     100, 0.026545235
     750, 0.099353939
       0, 0.013629529
     250, 0.043538242
       0, 0.015147751
       0, 0.012918825
    3000, 0.322437048
    2000, 0.228851732
       0, 0.012360158
       0, 0.013244963
       5, 0.019144185
    4000, 0.426940113
     500, 0.072693940
       0, 0.011955711
      50, 0.017984020
      25, 0.015477654
       0, 0.015668365
       0, 0.011950849
       0, 0.013087474
     250, 0.046017414
    1000, 0.131950654
      50, 0.022909608
      10, 0.015045678
   10000, 1.019924080
       0, 0.013553531
     100, 0.036431820
    3000, 0.313664081
      75, 0.023284304
       0, 0.013073713
    2000, 0.223741701
       0, 0.012822156
       0, 0.014237079
     750, 0.097728162
     500, 0.069415535
       5, 0.012928544
    4000, 0.428970419
    5000, 0.528442712
       5, 0.015090575
      10, 0.013339409
      50, 0.020476544
       0, 0.012090924
     750, 0.098455448
      75, 0.023179783
    3000, 0.326374000
      25, 0.019309538
    1000, 0.125979783
       0, 0.013752995
     100, 0.027483286
    5000, 0.529695441
    4000, 0.430117304
       0, 0.013081083
     500, 0.071051336
       0, 0.016413722
     250, 0.044331640
       0, 0.017562948
   10000, 1.026914914
       0, 0.011635875
       0, 0.011641826
    2000, 0.218583061
    2000, 0.230558079
    3000, 0.316797985
     500, 0.069957921
       0, 0.014763276
    1000, 0.121349126
      25, 0.016354943
    5000, 0.516972175
       0, 0.013146512
     750, 0.098707637
      10, 0.014021772
       0, 0.012103343
       0, 0.012207653
     250, 0.044160132
       5, 0.016154959
   10000, 1.026939084
       0, 0.014225208
    4000, 0.414035551
     100, 0.027370812
       0, 0.014157598
      50, 0.017488844
       0, 0.016081406
      75, 0.025439990
    3000, 0.320794916
      50, 0.017900016
      25, 0.018917948
      75, 0.025757957
    1000, 0.126645138
    4000, 0.423685886
     750, 0.092956667
    2000, 0.232890040
     100, 0.027853798
       0, 0.013139629
       0, 0.012043037
   10000, 1.025314878
     500, 0.073266887
    5000, 0.525366571
       5, 0.015345584
      10, 0.013418689
       0, 0.013101613
       0, 0.018561430
       0, 0.012977619
       0, 0.013249184
     250, 0.041438869
       0, 0.015061679
    4000, 0.415199090
       0, 0.017486121
       0, 0.011761208
   10000, 1.024121370
    2000, 0.224264306
       0, 0.013444373
      50, 0.023999205
       0, 0.015405098
       0, 0.015492172
     100, 0.026225202
     500, 0.074516763
     750, 0.091835585
     250, 0.043493481
       0, 0.012253887
       5, 0.012670317
      25, 0.020355274
    5000, 0.530686450
      75, 0.026131293
      10, 0.014328535
    1000, 0.119059670
    3000, 0.327086692
       0, 0.017083004
      25, 0.015085814
    2000, 0.216998622
       0, 0.013139210
    3000, 0.325023161
       0, 0.015068157
    4000, 0.424881227
      75, 0.023369252
       0, 0.014325674
     750, 0.094517394
    5000, 0.530816834
     500, 0.070058590
       0, 0.011986382
     250, 0.045903899
       5, 0.016938613
   10000, 1.024784287
     100, 0.028734080
       0, 0.012114677
      10, 0.015900069
       0, 0.014915993
       0, 0.012945745
    1000, 0.117274902
      50, 0.017256540
       0, 0.013008472
       0, 0.012392092
      25, 0.016437565
    3000, 0.323932143
     500, 0.067181513
    4000, 0.429213408
      10, 0.014298344
       0, 0.011762933
      50, 0.023252451
       5, 0.016579788
       0, 0.011869586
     250, 0.045272183
      75, 0.022475695
    1000, 0.129157354
    2000, 0.221604749
     100, 0.022514579
     750, 0.093585055
       0, 0.013240209
    5000, 0.529571466
   10000, 1.024667464
       0, 0.012453106
       0, 0.013515876
      50, 0.018443640
       0, 0.015295565
     500, 0.080441454
     250, 0.046484244
      10, 0.017229619
       0, 0.013677528
    3000, 0.333090354
    4000, 0.427235058
       5, 0.015795800
       0, 0.012204660
       0, 0.012632877
      25, 0.015484599
     750, 0.094958852
     100, 0.026436801
    1000, 0.122193094
       0, 0.013371190
       0, 0.013206426
    2000, 0.231279840
   10000, 1.025573362
      75, 0.019853820
    5000, 0.523945132
       0, 0.014791947
      75, 0.020695675
    2000, 0.231369182
   10000, 1.027390210
    3000, 0.323564022
     250, 0.045934786
       0, 0.013486133
       0, 0.011974113
    5000, 0.519947662
       0, 0.011833175
      50, 0.017406422
     100, 0.027492640
       0, 0.014897150
    1000, 0.120675610
       0, 0.016225177
      25, 0.014978224
    4000, 0.423441931
     500, 0.073432903
       0, 0.016548112
      10, 0.013856682
       0, 0.013092435
     750, 0.093507549
       5, 0.012968032
    1000, 0.128396870
   10000, 1.022790392
       0, 0.012343965
       0, 0.015304403
     750, 0.099697078
      10, 0.013566772
    5000, 0.523726128
      75, 0.023206141
      50, 0.022700960
       0, 0.015102963
    3000, 0.330495509
    2000, 0.235361498
       0, 0.013116031
     100, 0.026638096
       5, 0.013922574
       0, 0.011658961
       0, 0.013598969
    4000, 0.424185987
     500, 0.066671878
      25, 0.020547536
     250, 0.042202046
       0, 0.012250676
       0, 0.013836601
       0, 0.013562235
     250, 0.048569676
     100, 0.028979589
       0, 0.014657056
       0, 0.013304591
      50, 0.023153831
    4000, 0.430914752
    2000, 0.222388310
    3000, 0.331638908
   10000, 1.027306132
       0, 0.012922365
    1000, 0.120293497
      10, 0.015083421
      25, 0.015364869
     500, 0.069521599
       0, 0.012338305
     750, 0.109262588
      75, 0.024423632
    5000, 0.516160267
       0, 0.013056684
       5, 0.012993442
       0, 0.013746346
    2000, 0.229480161
      75, 0.022865614
       0, 0.012883799
      10, 0.015961852
    4000, 0.426566956
       0, 0.012327932
      25, 0.016609203
     750, 0.100247723
      50, 0.017545689
   10000, 1.015054109
     250, 0.041359652
       0, 0.013412791
     100, 0.025687212
    3000, 0.318974263
       0, 0.015045604
    5000, 0.517998879
    1000, 0.128846965
       5, 0.018747459
     500, 0.073498154
       0, 0.015897043
       0, 0.013025300
       0, 0.011894810
     750, 0.088443251
     500, 0.063276830
       5, 0.015111725
    2000, 0.232510951
    5000, 0.523825296
       0, 0.012003498
       0, 0.013581913
    4000, 0.425566823
      25, 0.017398186
      10, 0.020162050
    3000, 0.317510771
     100, 0.027569499
   10000, 1.021089878
      50, 0.021388874
    1000, 0.129997836
       0, 0.012098886
      75, 0.023276717
       0, 0.012034662
       0, 0.015921295
     250, 0.041144811
       0, 0.015027386
       0, 0.012519713
     100, 0.028102140
   10000, 1.024954682
      10, 0.016580660
     250, 0.040370237
       0, 0.012014872
      50, 0.022972837
    2000, 0.233280877
       0, 0.015499998
      75, 0.021743102
    3000, 0.323461854
     500, 0.071227331
    5000, 0.529235444
    4000, 0.422008820
       5, 0.013263031
       0, 0.012462062
       0, 0.013246579
    1000, 0.132751774
       0, 0.014614650
       0, 0.014871453
      25, 0.018728041
     750, 0.097916712
       0, 0.013730834
     500, 0.066275453
     250, 0.046111009
    1000, 0.133340282
     750, 0.099769902
      50, 0.020064654
    3000, 0.329744833
       0, 0.012239212
       0, 0.015686756
       0, 0.012025206
       5, 0.012959887
      25, 0.017247068
    5000, 0.527117378
       0, 0.014563220
     100, 0.028839991
      10, 0.013646133
    2000, 0.230027282
      75, 0.025909944
       0, 0.012116430
       0, 0.014450163
    4000, 0.425568096
   10000, 1.027090619
       0, 0.011996893
     750, 0.091126228
      10, 0.013245286
       0, 0.012306222
     250, 0.046032583
    3000, 0.327643541
    2000, 0.229195802
       5, 0.016000580
    1000, 0.118123327
       0, 0.013128884
    5000, 0.530203276
   10000, 1.023668091
      75, 0.022749615
     100, 0.027700769
       0, 0.013022521
      50, 0.017857368
    4000, 0.423369082
     500, 0.074421707
       0, 0.013080438
      25, 0.019218502
       0, 0.011957365
       0, 0.012538673
      10, 0.015410074
    2000, 0.224667375
    1000, 0.130733640
       0, 0.012977007
   10000, 1.025401746
       0, 0.014741703
       5, 0.013008533
      50, 0.021310995
     750, 0.094276708
       0, 0.014676154
      75, 0.023396815
       0, 0.012088931
       0, 0.014947547
     250, 0.039934226
       0, 0.012912250
      25, 0.018527364
     100, 0.025829942
    5000, 0.524185735
     500, 0.067729481
    4000, 0.420872189
       0, 0.013898223
    3000, 0.314400688
     750, 0.098219437
    3000, 0.333062869
       0, 0.028993525
      10, 0.013583029
       0, 0.013126120
       0, 0.015637410
    2000, 0.230027930
     250, 0.046136854
       5, 0.013531863
       0, 0.012526318
   10000, 1.025832507
       0, 0.012046114
       0, 0.012754363
     500, 0.068787468
    5000, 0.514586284
      75, 0.022901659
    4000, 0.430514760
      50, 0.021421804
       0, 0.011952212
    1000, 0.124488406
      25, 0.015102378
     100, 0.028037713
