   10000, 1.000014746
     100, 0.010015887
       0, 0.000000375
       0, 0.000000376
    5000, 0.500016708
    2000, 0.200020055
    4000, 0.400017464
       0, 0.000000550
       0, 0.000000361
      25, 0.002514014
       0, 0.000000400
     750, 0.075010928
    1000, 0.100012166
       5, 0.000517394
       0, 0.000000599
     500, 0.050015536
    3000, 0.300017426
     250, 0.025016589
      50, 0.005010684
      75, 0.007521565
       0, 0.000000481
      10, 0.001011587
     750, 0.075018845
     100, 0.010016598
       0, 0.000000372
    1000, 0.100023515
       0, 0.000000429
       5, 0.000508831
     250, 0.025027056
    3000, 0.300015340
   10000, 1.000020046
      50, 0.005030400
      75, 0.007519042
       0, 0.000000389
      25, 0.002524631
    5000, 0.500014758
    2000, 0.200019796
       0, 0.000000464
       0, 0.000000889
       0, 0.000000368
       0, 0.000000487
     500, 0.050014153
      10, 0.001010082
    4000, 0.400017038
       5, 0.000521228
      75, 0.007512148
      25, 0.002513015
     100, 0.010012921
     250, 0.025017529
       0, 0.000001173
       0, 0.000000405
       0, 0.000000371
    2000, 0.200018371
       0, 0.000000399
    4000, 0.400016379
      10, 0.001010080
       0, 0.000000378
    1000, 0.100013574
      50, 0.005019000
    5000, 0.500019197
     500, 0.050019254
   10000, 1.000019905
     750, 0.075012693
    3000, 0.300017499
       0, 0.000000390
       0, 0.000000394
       0, 0.000000372
     750, 0.075022877
      25, 0.002537855
       0, 0.000000458
       0, 0.000000373
    4000, 0.400015799
      50, 0.005033291
       0, 0.000000692
       0, 0.000000523
       0, 0.000000492
    2000, 0.200019998
    5000, 0.500016878
    1000, 0.100023060
     500, 0.050017827
   10000, 1.000014698
       5, 0.000513717
     100, 0.010015162
      10, 0.001012495
    3000, 0.300011175
      75, 0.007523472
     250, 0.025021611
       0, 0.000000393
       0, 0.000000393
      25, 0.002512705
       0, 0.000000462
       0, 0.000000423
      75, 0.007513142
      10, 0.001011029
     750, 0.075011045
    3000, 0.300013688
       5, 0.000513003
    5000, 0.500015313
    1000, 0.100011596
   10000, 1.000014853
    2000, 0.200019314
     250, 0.025012598
       0, 0.000000374
      50, 0.005016940
       0, 0.000000460
     100, 0.010030711
       0, 0.000000797
       0, 0.000000417
     500, 0.050034263
    4000, 0.400011582
      25, 0.002520216
       5, 0.000516808
      75, 0.007521298
       0, 0.000000395
       0, 0.000000438
      50, 0.005015381
       0, 0.000000392
     250, 0.025030080
       0, 0.000000510
     100, 0.010039954
    3000, 0.300011557
   10000, 1.000014540
     500, 0.050024317
    2000, 0.200011347
    4000, 0.400012490
       0, 0.000000386
    5000, 0.500011648
       0, 0.000000415
       0, 0.000000412
      10, 0.001010292
    1000, 0.100013743
     750, 0.075013735
       0, 0.000000536
       0, 0.000000942
       0, 0.000000415
       0, 0.000000395
   10000, 1.000014731
     750, 0.075025777
       0, 0.000000452
       0, 0.000000460
    3000, 0.300014688
    5000, 0.500013970
     250, 0.025025190
    2000, 0.200011368
     500, 0.050012805
      50, 0.005013073
     100, 0.010018682
      75, 0.007519267
      10, 0.001014307
    4000, 0.400012676
      25, 0.002511907
    1000, 0.100011958
       5, 0.000512772
       0, 0.000000368
    5000, 0.500011836
      10, 0.001011670
       0, 0.000000402
    3000, 0.300018900
       0, 0.000000430
    1000, 0.100013304
     500, 0.050011944
       0, 0.000000370
      50, 0.005023210
    2000, 0.200020989
      25, 0.002516014
    4000, 0.400014073
       0, 0.000000362
   10000, 1.000015170
       5, 0.000513181
       0, 0.000000381
      75, 0.007517494
     100, 0.010021956
       0, 0.000000385
     750, 0.075014294
       0, 0.000000377
     250, 0.025016509
      75, 0.007514390
     100, 0.010012765
       0, 0.000000374
      25, 0.002514100
    1000, 0.100022890
   10000, 1.000011936
    2000, 0.200011417
       0, 0.000000371
       0, 0.000000499
       0, 0.000000897
       0, 0.000000452
     500, 0.050019847
     750, 0.075014600
       0, 0.000000381
       0, 0.000000799
     250, 0.025030287
    5000, 0.500011774
       5, 0.000513508
    3000, 0.300012735
      10, 0.001014576
    4000, 0.400014801
      50, 0.005025303
       5, 0.000508951
    1000, 0.100042521
      75, 0.007520030
       0, 0.000000374
       0, 0.000000350
    4000, 0.400016312
       0, 0.000000826
     100, 0.010033449
       0, 0.000000904
     500, 0.050026104
     250, 0.025033383
       0, 0.000000406
     750, 0.075015139
    2000, 0.200020956
      25, 0.002523192
    5000, 0.500011984
   10000, 1.000013356
       0, 0.000000403
      10, 0.001031326
    3000, 0.300011854
      50, 0.005018749
       0, 0.000000514
      10, 0.001012217
   10000, 1.000015066
       0, 0.000000506
    1000, 0.100023661
    4000, 0.400011137
       0, 0.000000397
      75, 0.007511733
       0, 0.000000430
       0, 0.000000432
     750, 0.075016715
     500, 0.050040978
       0, 0.000000756
      25, 0.002522690
       0, 0.000000517
       0, 0.000000534
    2000, 0.200020125
    5000, 0.500012148
    3000, 0.300018133
     100, 0.010024981
       5, 0.000513453
     250, 0.025025953
      50, 0.005025609
     750, 0.075019420
    3000, 0.300015801
      50, 0.005029331
     100, 0.010012000
    5000, 0.500014919
   10000, 1.000012004
       0, 0.000000755
      75, 0.007528210
       0, 0.000000381
      25, 0.002530322
       0, 0.000000386
       0, 0.000000359
    4000, 0.400012273
      10, 0.001013704
       0, 0.000000378
     500, 0.050013124
       5, 0.000514734
    2000, 0.200019688
       0, 0.000000364
    1000, 0.100023619
       0, 0.000000367
     250, 0.025016652
    4000, 0.400012311
       0, 0.000000408
    2000, 0.200019960
     100, 0.010021769
       0, 0.000000564
      25, 0.002511303
      75, 0.007525153
     250, 0.025015232
       5, 0.000522027
    5000, 0.500011960
   10000, 1.000017308
      10, 0.001012475
       0, 0.000000409
     750, 0.075025006
     500, 0.050035086
       0, 0.000000386
    1000, 0.100024218
       0, 0.000000395
       0, 0.000000368
    3000, 0.300017752
      50, 0.005022465
       0, 0.000000945
       0, 0.000000407
     750, 0.075027837
     250, 0.025010520
       0, 0.000000441
      75, 0.007512453
      25, 0.002519798
      50, 0.005021135
      10, 0.001012454
    3000, 0.300018402
     100, 0.010012366
       0, 0.000000384
       5, 0.000513590
   10000, 1.000013037
       0, 0.000000409
       0, 0.000000406
    4000, 0.400017903
       0, 0.000000454
       0, 0.000000651
    1000, 0.100046118
    2000, 0.200012441
    5000, 0.500012339
     500, 0.050020911
     500, 0.050020489
     750, 0.075030133
      25, 0.002513038
      75, 0.007522670
       0, 0.000000481
       0, 0.000000381
       0, 0.000000614
       0, 0.000000473
       0, 0.000000934
       0, 0.000000882
      50, 0.005013551
    1000, 0.100021917
    2000, 0.200019632
    4000, 0.400014732
       5, 0.000513175
   10000, 1.000013539
       0, 0.000000372
     250, 0.025019820
    3000, 0.300017733
    5000, 0.500018241
     100, 0.010011698
      10, 0.001020260
       0, 0.000000370
       0, 0.000000402
       0, 0.000000568
     250, 0.025022987
       0, 0.000000920
    4000, 0.400011495
       0, 0.000000912
   10000, 1.000011875
     100, 0.010014520
       0, 0.000000491
      50, 0.005012117
    3000, 0.300017149
       0, 0.000000448
       5, 0.000521714
      25, 0.002510946
     500, 0.050016294
      10, 0.001010675
    1000, 0.100011918
      75, 0.007542202
    2000, 0.200013103
     750, 0.075024601
    5000, 0.500013295
     100, 0.010012190
       0, 0.000000361
       0, 0.000000862
      50, 0.005011905
   10000, 1.000011965
      25, 0.002517577
    3000, 0.300017884
      10, 0.001015057
     750, 0.075011082
    4000, 0.400014214
    2000, 0.200011602
     250, 0.025012599
       0, 0.000000912
    1000, 0.100014115
       0, 0.000000367
    5000, 0.500011301
       0, 0.000000440
       0, 0.000000426
       5, 0.000511783
     500, 0.050016952
       0, 0.000000375
      75, 0.007527622
    5000, 0.500015544
    2000, 0.200014060
       0, 0.000000590
      10, 0.001012537
     250, 0.025009926
       0, 0.000000481
    1000, 0.100020168
     500, 0.050023850
    3000, 0.300017433
     100, 0.010011958
       0, 0.000000362
       0, 0.000000357
      50, 0.005014913
       0, 0.000000360
      25, 0.002519944
      75, 0.007529261
       0, 0.000000975
       5, 0.000509300
       0, 0.000000377
   10000, 1.000013252
     750, 0.075040830
    4000, 0.400011419
    2000, 0.200019999
      25, 0.002510700
    4000, 0.400012214
      50, 0.005025122
     750, 0.075017024
   10000, 1.000013439
       0, 0.000000666
       0, 0.000000669
     500, 0.050025063
    3000, 0.300034731
       0, 0.000000393
    5000, 0.500014000
    1000, 0.100023569
     250, 0.025023432
     100, 0.010011089
       0, 0.000000470
       0, 0.000000374
      10, 0.001015045
      75, 0.007523009
       0, 0.000000882
       5, 0.000513248
       0, 0.000000402
     100, 0.010028760
       0, 0.000000470
     750, 0.075018655
      10, 0.001011993
      25, 0.002508798
    4000, 0.400016270
       0, 0.000000396
      75, 0.007536928
     250, 0.025023984
       5, 0.000510818
       0, 0.000000438
    1000, 0.100026927
       0, 0.000000501
      50, 0.005013543
       0, 0.000000439
   10000, 1.000012516
    3000, 0.300023047
    5000, 0.500016206
       0, 0.000000364
     500, 0.050011296
       0, 0.000000436
    2000, 0.200020131
      75, 0.007521130
    5000, 0.500014024
      10, 0.001015574
     750, 0.075017115
       0, 0.000000840
      50, 0.005013321
   10000, 1.000012876
       0, 0.000000359
       0, 0.000000385
       0, 0.000000379
       5, 0.000513202
     100, 0.010023630
    1000, 0.100014432
      25, 0.002522088
    3000, 0.300011309
     250, 0.025021164
    4000, 0.400011676
    2000, 0.200012138
     500, 0.050023141
       0, 0.000000706
       0, 0.000000379
       0, 0.000000499
    5000, 0.500013089
    1000, 0.100030372
      10, 0.001010192
      25, 0.002520974
       0, 0.000000381
   10000, 1.000013113
      75, 0.007521114
     100, 0.010024085
     750, 0.075023299
       0, 0.000000585
     250, 0.025021090
       0, 0.000000464
       0, 0.000000422
    3000, 0.300011507
    2000, 0.200019224
       0, 0.000000912
       0, 0.000000366
       5, 0.000512014
    4000, 0.400016709
     500, 0.050018129
       0, 0.000000382
      50, 0.005016519
      25, 0.002531902
       0, 0.000000440
       0, 0.000000381
       0, 0.000000359
     250, 0.025012611
    1000, 0.100011563
      50, 0.005036518
      10, 0.001018255
   10000, 1.000012474
       0, 0.000000395
     100, 0.010012881
    3000, 0.300018491
      75, 0.007522093
       0, 0.000000388
    2000, 0.200019966
       0, 0.000000436
       0, 0.000000469
     750, 0.075024100
     500, 0.050025483
       5, 0.000513079
    4000, 0.400016077
    5000, 0.500011197
       5, 0.000511117
      10, 0.001023895
      50, 0.005025508
       0, 0.000000448
     750, 0.075036696
      75, 0.007513530
    3000, 0.300011628
      25, 0.002518436
    1000, 0.100012446
       0, 0.000000384
     100, 0.010020863
    5000, 0.500011662
    4000, 0.400024889
       0, 0.000000405
     500, 0.050025154
       0, 0.000000441
     250, 0.025018750
       0, 0.000000601
   10000, 1.000013904
       0, 0.000000394
       0, 0.000000369
    2000, 0.200019569
    2000, 0.200012098
    3000, 0.300012786
     500, 0.050012606
       0, 0.000000390
    1000, 0.100022693
      25, 0.002516536
    5000, 0.500011655
       0, 0.000000377
     750, 0.075024079
      10, 0.001010268
       0, 0.000000429
       0, 0.000000404
     250, 0.025015418
       5, 0.000509896
   10000, 1.000012851
       0, 0.000000369
    4000, 0.400016495
     100, 0.010027893
       0, 0.000000431
      50, 0.005021538
       0, 0.000000390
      75, 0.007522096
    3000, 0.300011777
      50, 0.005016860
      25, 0.002510405
      75, 0.007516677
    1000, 0.100013796
    4000, 0.400011294
     750, 0.075022080
    2000, 0.200019724
     100, 0.010023371
       0, 0.000000478
       0, 0.000000373
   10000, 1.000014909
     500, 0.050018543
    5000, 0.500012987
       5, 0.000510065
      10, 0.001010241
       0, 0.000000360
       0, 0.000000384
       0, 0.000000385
       0, 0.000000374
     250, 0.025010823
       0, 0.000000401
    4000, 0.400017898
       0, 0.000000509
       0, 0.000000424
   10000, 1.000013753
    2000, 0.200013886
       0, 0.000000542
      50, 0.005021951
       0, 0.000000920
       0, 0.000000879
     100, 0.010015775
     500, 0.050014155
     750, 0.075011531
     250, 0.025011671
       0, 0.000000450
       5, 0.000513117
      25, 0.002527183
    5000, 0.500011559
      75, 0.007514803
      10, 0.001011463
    1000, 0.100017728
    3000, 0.300017767
       0, 0.000000492
      25, 0.002530330
    2000, 0.200012513
       0, 0.000000416
    3000, 0.300017005
       0, 0.000000425
    4000, 0.400017627
      75, 0.007516915
       0, 0.000000414
     750, 0.075019267
    5000, 0.500012839
     500, 0.050024565
       0, 0.000000364
     250, 0.025026930
       5, 0.000510649
   10000, 1.000013332
     100, 0.010011371
       0, 0.000000405
      10, 0.001013988
       0, 0.000000393
       0, 0.000000402
    1000, 0.100014451
      50, 0.005013589
       0, 0.000000398
       0, 0.000000396
      25, 0.002527600
    3000, 0.300017357
     500, 0.050011684
    4000, 0.400013925
      10, 0.001011583
       0, 0.000000392
      50, 0.005028312
       5, 0.000521824
       0, 0.000000368
     250, 0.025026999
      75, 0.007518601
    1000, 0.100016443
    2000, 0.200018574
     100, 0.010016159
     750, 0.075012912
       0, 0.000000376
    5000, 0.500012228
   10000, 1.000013288
       0, 0.000000374
       0, 0.000000373
      50, 0.005018417
       0, 0.000000538
     500, 0.050025454
     250, 0.025017550
      10, 0.001014424
       0, 0.000000437
    3000, 0.300011836
    4000, 0.400013278
       5, 0.000509134
       0, 0.000000381
       0, 0.000000366
      25, 0.002513693
     750, 0.075016144
     100, 0.010026711
    1000, 0.100011659
       0, 0.000000389
       0, 0.000000395
    2000, 0.200014085
   10000, 1.000015221
      75, 0.007522668
    5000, 0.500014074
       0, 0.000000890
      75, 0.007512797
    2000, 0.200016301
   10000, 1.000014469
    3000, 0.300012116
     250, 0.025019415
       0, 0.000000402
       0, 0.000000501
    5000, 0.500011900
       0, 0.000000365
      50, 0.005041102
     100, 0.010032028
       0, 0.000000919
    1000, 0.100021542
       0, 0.000000598
      25, 0.002528024
    4000, 0.400015588
     500, 0.050025166
       0, 0.000000371
      10, 0.001030907
       0, 0.000000371
     750, 0.075011645
       5, 0.000513926
    1000, 0.100014993
   10000, 1.000012922
       0, 0.000000379
       0, 0.000000625
     750, 0.075020513
      10, 0.001012863
    5000, 0.500012156
      75, 0.007520387
      50, 0.005013566
       0, 0.000000421
    3000, 0.300015198
    2000, 0.200012226
       0, 0.000000480
     100, 0.010022570
       5, 0.000523687
       0, 0.000000384
       0, 0.000000392
    4000, 0.400011389
     500, 0.050014145
      25, 0.002512191
     250, 0.025016498
       0, 0.000000387
       0, 0.000000401
       0, 0.000000575
     250, 0.025020551
     100, 0.010022159
       0, 0.000000924
       0, 0.000000387
      50, 0.005039137
    4000, 0.400012388
    2000, 0.200012085
    3000, 0.300013093
   10000, 1.000014501
       0, 0.000000356
    1000, 0.100011740
      10, 0.001013089
      25, 0.002510504
     500, 0.050013537
       0, 0.000000391
     750, 0.075020130
      75, 0.007522157
    5000, 0.500013775
       0, 0.000000950
       5, 0.000510512
       0, 0.000000359
    2000, 0.200019642
      75, 0.007514746
       0, 0.000000384
      10, 0.001040776
    4000, 0.400016082
       0, 0.000000386
      25, 0.002519263
     750, 0.075040077
      50, 0.005017183
   10000, 1.000012401
     250, 0.025011784
       0, 0.000000770
     100, 0.010035309
    3000, 0.300012939
       0, 0.000000924
    5000, 0.500015237
    1000, 0.100011769
       5, 0.000512180
     500, 0.050019934
       0, 0.000000452
       0, 0.000000361
       0, 0.000000371
     750, 0.075018886
     500, 0.050016517
       5, 0.000531847
    2000, 0.200016356
    5000, 0.500015779
       0, 0.000000474
       0, 0.000000370
    4000, 0.400011732
      25, 0.002515309
      10, 0.001017213
    3000, 0.300012961
     100, 0.010027551
   10000, 1.000012014
      50, 0.005012045
    1000, 0.100014190
       0, 0.000000404
      75, 0.007511405
       0, 0.000000351
       0, 0.000000466
     250, 0.025026565
       0, 0.000000515
       0, 0.000000453
     100, 0.010017840
   10000, 1.000015316
      10, 0.001015580
     250, 0.025011093
       0, 0.000000372
      50, 0.005028956
    2000, 0.200017866
       0, 0.000000781
      75, 0.007512653
    3000, 0.300011608
     500, 0.050018180
    5000, 0.500012832
    4000, 0.400016314
       5, 0.000509856
       0, 0.000000385
       0, 0.000000367
    1000, 0.100022960
       0, 0.000000375
       0, 0.000000496
      25, 0.002527491
     750, 0.075023643
       0, 0.000000716
     500, 0.050011254
     250, 0.025013734
    1000, 0.100016372
     750, 0.075033823
      50, 0.005037596
    3000, 0.300011621
       0, 0.000000952
       0, 0.000000558
       0, 0.000000875
       5, 0.000513163
      25, 0.002529215
    5000, 0.500021234
       0, 0.000000430
     100, 0.010035809
      10, 0.001010337
    2000, 0.200020055
      75, 0.007545539
       0, 0.000000852
       0, 0.000000403
    4000, 0.400015825
   10000, 1.000027497
       0, 0.000000443
     750, 0.075014749
      10, 0.001010535
       0, 0.000000374
     250, 0.025013932
    3000, 0.300014573
    2000, 0.200016992
       5, 0.000513057
    1000, 0.100023175
       0, 0.000000396
    5000, 0.500016905
   10000, 1.000014966
      75, 0.007524660
     100, 0.010012286
       0, 0.000000884
      50, 0.005017382
    4000, 0.400017234
     500, 0.050023954
       0, 0.000000366
      25, 0.002510360
       0, 0.000000482
       0, 0.000000405
      10, 0.001011560
    2000, 0.200018797
    1000, 0.100015226
       0, 0.000000429
   10000, 1.000015048
       0, 0.000000912
       5, 0.000516996
      50, 0.005018863
     750, 0.075025121
       0, 0.000000389
      75, 0.007511899
       0, 0.000000915
       0, 0.000000442
     250, 0.025019526
       0, 0.000000404
      25, 0.002521316
     100, 0.010026526
    5000, 0.500011831
     500, 0.050013313
    4000, 0.400017654
       0, 0.000000391
    3000, 0.300017499
     750, 0.075012302
    3000, 0.300013028
       0, 0.000000781
      10, 0.001021032
       0, 0.000000353
       0, 0.000000631
    2000, 0.200013070
     250, 0.025022429
       5, 0.000536634
       0, 0.000000468
   10000, 1.000014355
       0, 0.000000384
       0, 0.000000389
     500, 0.050024830
    5000, 0.500015185
      75, 0.007521136
    4000, 0.400016390
      50, 0.005028958
       0, 0.000000402
    1000, 0.100019747
      25, 0.002511530
     100, 0.010029158
